name,value,series,level,parallel,marker,row,analyte
experimental concentration,0.4738010474803077,11/2/18,1,1,Sample,6,1
trueness,101.627357604496,11/2/18,1,1,Sample,6,1
experimental concentration,0.3943337527825116,11/2/18,1,2,Sample,7,1
trueness,101.71497366171076,11/2/18,1,2,Sample,7,1
experimental concentration,0.3858627319644159,11/2/18,1,3,Sample,8,1
trueness,101.47074523898227,11/2/18,1,3,Sample,8,1
experimental concentration,0.3823109178940808,11/2/18,1,4,Sample,9,1
trueness,101.75661141135706,11/2/18,1,4,Sample,9,1
experimental concentration,0.471810542779147,11/2/18,1,5,Sample,10,1
trueness,101.58326641429456,11/2/18,1,5,Sample,10,1
experimental concentration,0.4778715007939073,11/2/18,1,6,Sample,11,1
trueness,101.41602161152565,11/2/18,1,6,Sample,11,1
experimental concentration,0.5536003317218287,11/2/18,1,7,Sample,12,1
trueness,101.43642129722654,11/2/18,1,7,Sample,12,1
experimental concentration,0.5598487729262744,11/2/18,1,8,Sample,13,1
trueness,101.6036623850964,11/2/18,1,8,Sample,13,1
experimental concentration,0.5519922427182177,11/2/18,1,9,Sample,14,1
trueness,101.24340673324619,11/2/18,1,9,Sample,14,1
experimental concentration,0.5519922427182177,11/2/18,1,10,Sample,15,1
trueness,101.24340673324619,11/2/18,1,10,Sample,15,1
experimental concentration,0.4177377385201164,11/6/18,1,1,Sample,21,1
trueness,101.57879774068368,11/6/18,1,1,Sample,21,1
experimental concentration,0.4207238222417653,11/6/18,1,2,Sample,22,1
trueness,101.73520226506756,11/6/18,1,2,Sample,22,1
experimental concentration,0.4210960727050188,11/6/18,1,3,Sample,23,1
trueness,101.8290785759808,11/6/18,1,3,Sample,23,1
experimental concentration,0.5258573598531284,11/6/18,2,1,Sample,24,1
trueness,101.4753582477287,11/6/18,2,1,Sample,24,1
experimental concentration,0.5274727932326211,11/6/18,2,2,Sample,25,1
trueness,102.00453654297175,11/6/18,2,2,Sample,25,1
experimental concentration,0.5292454502494041,11/6/18,2,3,Sample,26,1
trueness,102.11990204329328,11/6/18,2,3,Sample,26,1
experimental concentration,0.631772250513526,11/6/18,3,1,Sample,27,1
trueness,101.3104900534583,11/6/18,3,1,Sample,27,1
experimental concentration,0.6323591393404532,11/6/18,3,2,Sample,28,1
trueness,100.75480795635796,11/6/18,3,2,Sample,28,1
experimental concentration,0.6404266464756513,11/6/18,3,3,Sample,29,1
trueness,102.19248733111993,11/6/18,3,3,Sample,29,1
experimental concentration,0.41745735678096835,11/15/18,1,1,Sample,35,1
trueness,101.5106189831886,11/15/18,1,1,Sample,35,1
experimental concentration,0.42077416335228934,11/15/18,1,2,Sample,36,1
trueness,101.74737524598916,11/15/18,1,2,Sample,36,1
experimental concentration,0.42268660206965963,11/15/18,1,3,Sample,37,1
trueness,102.21369897533292,11/15/18,1,3,Sample,37,1
experimental concentration,0.5312184951659692,11/15/18,2,1,Sample,38,1
trueness,102.50990329362672,11/15/18,2,1,Sample,38,1
experimental concentration,0.5290724594522577,11/15/18,2,2,Sample,39,1
trueness,102.31388560030885,11/15/18,2,2,Sample,39,1
experimental concentration,0.5308916624536341,11/15/18,2,3,Sample,40,1
trueness,102.4375448854929,11/15/18,2,3,Sample,40,1
experimental concentration,0.6329861253506177,11/15/18,3,1,Sample,41,1
trueness,101.50514604619833,11/15/18,3,1,Sample,41,1
experimental concentration,0.6334501168878218,11/15/18,3,2,Sample,42,1
trueness,100.92863517957873,11/15/18,3,2,Sample,42,1
experimental concentration,0.6432997243447814,11/15/18,3,3,Sample,43,1
trueness,102.65094260520662,11/15/18,3,3,Sample,43,1
experimental concentration,0.4738010474803077,11/2/18,1,9,Sample,49,2
trueness,101.627357604496,11/2/18,1,9,Sample,49,2
experimental concentration,0.3943337527825116,11/2/18,1,1,Sample,50,2
trueness,101.71497366171076,11/2/18,1,1,Sample,50,2
experimental concentration,0.3858627319644159,11/2/18,1,2,Sample,51,2
trueness,101.47074523898227,11/2/18,1,2,Sample,51,2
experimental concentration,0.3823109178940808,11/2/18,1,3,Sample,52,2
trueness,101.75661141135706,11/2/18,1,3,Sample,52,2
experimental concentration,0.471810542779147,11/2/18,1,4,Sample,53,2
trueness,101.58326641429456,11/2/18,1,4,Sample,53,2
experimental concentration,0.4778715007939073,11/2/18,1,5,Sample,54,2
trueness,101.41602161152565,11/2/18,1,5,Sample,54,2
experimental concentration,0.5536003317218287,11/2/18,1,6,Sample,55,2
trueness,101.43642129722654,11/2/18,1,6,Sample,55,2
experimental concentration,0.5598487729262744,11/2/18,1,7,Sample,56,2
trueness,101.6036623850964,11/2/18,1,7,Sample,56,2
experimental concentration,0.5519922427182177,11/2/18,1,8,Sample,57,2
trueness,101.24340673324619,11/2/18,1,8,Sample,57,2
experimental concentration,0.5519922427182177,11/2/18,1,10,Sample,58,2
trueness,101.24340673324619,11/2/18,1,10,Sample,58,2
experimental concentration,0.4177377385201164,11/6/18,1,1,Sample,64,2
trueness,101.57879774068368,11/6/18,1,1,Sample,64,2
experimental concentration,0.4207238222417653,11/6/18,1,2,Sample,65,2
trueness,101.73520226506756,11/6/18,1,2,Sample,65,2
experimental concentration,0.4210960727050188,11/6/18,1,3,Sample,66,2
trueness,101.8290785759808,11/6/18,1,3,Sample,66,2
experimental concentration,0.5258573598531284,11/6/18,2,1,Sample,67,2
trueness,101.4753582477287,11/6/18,2,1,Sample,67,2
experimental concentration,0.5274727932326211,11/6/18,2,2,Sample,68,2
trueness,102.00453654297175,11/6/18,2,2,Sample,68,2
experimental concentration,0.5292454502494041,11/6/18,2,3,Sample,69,2
trueness,102.11990204329328,11/6/18,2,3,Sample,69,2
experimental concentration,0.631772250513526,11/6/18,3,1,Sample,70,2
trueness,101.3104900534583,11/6/18,3,1,Sample,70,2
experimental concentration,0.6323591393404532,11/6/18,3,2,Sample,71,2
trueness,100.75480795635796,11/6/18,3,2,Sample,71,2
experimental concentration,0.6404266464756513,11/6/18,3,3,Sample,72,2
trueness,102.19248733111993,11/6/18,3,3,Sample,72,2
experimental concentration,0.41745735678096835,11/15/18,1,1,Sample,78,2
trueness,101.5106189831886,11/15/18,1,1,Sample,78,2
experimental concentration,0.42077416335228934,11/15/18,1,2,Sample,79,2
trueness,101.74737524598916,11/15/18,1,2,Sample,79,2
experimental concentration,0.42268660206965963,11/15/18,1,3,Sample,80,2
trueness,102.21369897533292,11/15/18,1,3,Sample,80,2
experimental concentration,0.5312184951659692,11/15/18,2,1,Sample,81,2
trueness,102.50990329362672,11/15/18,2,1,Sample,81,2
experimental concentration,0.5290724594522577,11/15/18,2,2,Sample,82,2
trueness,102.31388560030885,11/15/18,2,2,Sample,82,2
experimental concentration,0.5308916624536341,11/15/18,2,3,Sample,83,2
trueness,102.4375448854929,11/15/18,2,3,Sample,83,2
experimental concentration,0.6329861253506177,11/15/18,3,1,Sample,84,2
trueness,101.50514604619833,11/15/18,3,1,Sample,84,2
experimental concentration,0.6334501168878218,11/15/18,3,2,Sample,85,2
trueness,100.92863517957873,11/15/18,3,2,Sample,85,2
experimental concentration,0.6432997243447814,11/15/18,3,3,Sample,86,2
trueness,102.65094260520662,11/15/18,3,3,Sample,86,2
slope,38408028.10194179,11/15/18,,,Calibration,,1
intercept,101150.10939422855,11/15/18,,,Calibration,,1
mean trueness,101.8238977348369,11/15/18,1,,Sample,,1
sd trueness,0.35773193499183104,11/15/18,1,,Sample,,1
rsd trueness,0.35132414192531993,11/15/18,1,,Sample,,1
mean trueness,102.42044459314282,11/15/18,2,,Sample,,1
sd trueness,0.09912138529226759,11/15/18,2,,Sample,,1
rsd trueness,0.09677890550662957,11/15/18,2,,Sample,,1
mean trueness,101.69490794366124,11/15/18,3,,Sample,,1
sd trueness,0.8766943027017917,11/15/18,3,,Sample,,1
rsd trueness,0.8620827929629265,11/15/18,3,,Sample,,1
slope,38392775.43802699,11/2/18,,,Calibration,,1
intercept,159007.78178658383,11/2/18,,,Calibration,,1
mean trueness,101.50958730911816,11/2/18,1,,Sample,,1
sd trueness,0.17909455704525304,11/2/18,1,,Sample,,1
rsd trueness,0.17643117442677828,11/2/18,1,,Sample,,1
slope,38613786.73479762,11/6/18,,,Calibration,,1
intercept,85381.0537075717,11/6/18,,,Calibration,,1
mean trueness,101.71435952724401,11/6/18,1,,Sample,,1
sd trueness,0.12643551288796023,11/6/18,1,,Sample,,1
rsd trueness,0.12430448707106561,11/6/18,1,,Sample,,1
mean trueness,101.86659894466459,11/6/18,2,,Sample,,1
sd trueness,0.34369937717467464,11/6/18,2,,Sample,,1
rsd trueness,0.33740144535636955,11/6/18,2,,Sample,,1
mean trueness,101.41926178031207,11/6/18,3,,Sample,,1
sd trueness,0.7249854912865882,11/6/18,3,,Sample,,1
rsd trueness,0.7148400398111805,11/6/18,3,,Sample,,1
mean trueness,101.60691530483902,,1,,Sample,,1
sd trueness,0.23765439764666463,,1,,Sample,,1
rsd trueness,0.23389588881195605,,1,,Sample,,1
mean trueness,102.14352176890371,,2,,Sample,,1
sd trueness,0.37842466232857114,,2,,Sample,,1
rsd trueness,0.37048327272751007,,2,,Sample,,1
mean trueness,101.55708486198665,,3,,Sample,,1
sd trueness,0.7351686795539301,,3,,Sample,,1
rsd trueness,0.7238969891199659,,3,,Sample,,1
slope,38408028.10194179,11/15/18,,,Calibration,,2
intercept,101150.10939422855,11/15/18,,,Calibration,,2
mean trueness,101.8238977348369,11/15/18,1,,Sample,,2
sd trueness,0.35773193499183104,11/15/18,1,,Sample,,2
rsd trueness,0.35132414192531993,11/15/18,1,,Sample,,2
mean trueness,102.42044459314282,11/15/18,2,,Sample,,2
sd trueness,0.09912138529226759,11/15/18,2,,Sample,,2
rsd trueness,0.09677890550662957,11/15/18,2,,Sample,,2
mean trueness,101.69490794366124,11/15/18,3,,Sample,,2
sd trueness,0.8766943027017917,11/15/18,3,,Sample,,2
rsd trueness,0.8620827929629265,11/15/18,3,,Sample,,2
slope,38392775.43802699,11/2/18,,,Calibration,,2
intercept,159007.78178658383,11/2/18,,,Calibration,,2
mean trueness,101.50958730911816,11/2/18,1,,Sample,,2
sd trueness,0.17909455704525304,11/2/18,1,,Sample,,2
rsd trueness,0.17643117442677828,11/2/18,1,,Sample,,2
slope,38613786.73479762,11/6/18,,,Calibration,,2
intercept,85381.0537075717,11/6/18,,,Calibration,,2
mean trueness,101.71435952724401,11/6/18,1,,Sample,,2
sd trueness,0.12643551288796023,11/6/18,1,,Sample,,2
rsd trueness,0.12430448707106561,11/6/18,1,,Sample,,2
mean trueness,101.86659894466459,11/6/18,2,,Sample,,2
sd trueness,0.34369937717467464,11/6/18,2,,Sample,,2
rsd trueness,0.33740144535636955,11/6/18,2,,Sample,,2
mean trueness,101.41926178031207,11/6/18,3,,Sample,,2
sd trueness,0.7249854912865882,11/6/18,3,,Sample,,2
rsd trueness,0.7148400398111805,11/6/18,3,,Sample,,2
mean trueness,101.60691530483902,,1,,Sample,,2
sd trueness,0.23765439764666463,,1,,Sample,,2
rsd trueness,0.23389588881195605,,1,,Sample,,2
mean trueness,102.14352176890371,,2,,Sample,,2
sd trueness,0.37842466232857114,,2,,Sample,,2
rsd trueness,0.37048327272751007,,2,,Sample,,2
mean trueness,101.55708486198665,,3,,Sample,,2
sd trueness,0.7351686795539301,,3,,Sample,,2
rsd trueness,0.7238969891199659,,3,,Sample,,2
