name,tr,area,expected concentration,series,level,parallel,marker,analyte,is area,is expected concentration
0.8 mg/ml compound 1,18.950,31285035,0.813941697386764,11/02/2018,1,1,Calibration,ACE,8010000,0.2
0.6 mg/ml compound 1,18.965,23799618,0.612960681043829,11/02/2018,2,1,Calibration,ACE,8020100,0.2
0.4 mg/ml compound 1,18.923,15866617,0.406306764327968,11/02/2018,3,1,Calibration,ACE,8030215,0.2
0.2 mg/ml compound 1,18.894,8000115,0.204248166773677,11/02/2018,4,1,Calibration,ACE,8020569,0.2
0.1 mg/ml compound 1,18.820,3932841,0.100684206794816,11/02/2018,5,1,Calibration,ACE,8010964,0.2
compound 1-0211-100-3 200x,18.946,18349545,0.466214077241094,11/02/2018,2,3,Sample,ACE,8021256,0.2
compound 1-0211-100-3 200x,18.942,18351057,0.466214077241094,11/02/2018,2,3,Sample,ACE,8031569,0.2
compound 1-0211-100-3 200x,18.947,18350549,0.466214077241094,11/02/2018,2,3,Sample,ACE,8023123,0.2
compound 1-0211-100-3 200x,18.943,18352650,0.466214077241094,11/02/2018,2,3,Sample,ACE,8011025,0.2
compound 1-0211-100-3 200x,18.943,18348201,0.466214077241094,11/02/2018,2,3,Sample,ACE,8033912,0.2
compound 1-0211-100-3 200x,18.943,18348201,0.466214077241094,11/02/2018,2,3,Sample,ACE,8000856,0.2
0.8 mg/ml compound 1,18.950,31285035,0.813941697386764,11/02/2018,1,1,Calibration,THC,1175695,0.3
0.6 mg/ml compound 1,18.965,23799618,0.612960681043829,11/02/2018,2,1,Calibration,THC,1156978,0.3
0.4 mg/ml compound 1,18.923,15866617,0.406306764327968,11/02/2018,3,1,Calibration,THC,1159325,0.3
0.2 mg/ml compound 1,18.894,8000115,0.204248166773677,11/02/2018,4,1,Calibration,THC,1159965,0.3
0.1 mg/ml compound 1,18.820,3932841,0.100684206794816,11/02/2018,5,1,Calibration,THC,1162254,0.3
compound 1-0211-100-3 200x,18.946,18349545,0.466214077241094,11/02/2018,2,3,Sample,THC,1183545,0.3
compound 1-0211-100-3 200x,18.942,18351057,0.466214077241094,11/02/2018,2,3,Sample,THC,1165654,0.3
compound 1-0211-100-3 200x,18.947,18350549,0.466214077241094,11/02/2018,2,3,Sample,THC,1169564,0.3
compound 1-0211-100-3 200x,18.943,18352650,0.466214077241094,11/02/2018,2,3,Sample,THC,1171235,0.3
compound 1-0211-100-3 200x,18.943,18348201,0.466214077241094,11/02/2018,2,3,Sample,THC,1149542,0.3
compound 1-0211-100-3 200x,18.943,18348201,0.466214077241094,11/02/2018,2,3,Sample,THC,1135863,0.3
0.8 mg/ml compound 1,18.950,31285035,0.813941697386764,12/02/2018,1,1,Calibration,ACE,8010000,0.2
0.6 mg/ml compound 1,18.965,23799618,0.612960681043829,12/02/2018,2,1,Calibration,ACE,8020100,0.2
0.4 mg/ml compound 1,18.923,15866617,0.406306764327968,12/02/2018,3,1,Calibration,ACE,8030215,0.2
0.2 mg/ml compound 1,18.894,8000115,0.204248166773677,12/02/2018,4,1,Calibration,ACE,8020569,0.2
0.1 mg/ml compound 1,18.820,3932841,0.100684206794816,12/02/2018,5,1,Calibration,ACE,8010964,0.2
compound 1-0211-100-3 200x,18.946,18349545,0.466214077241094,12/02/2018,2,3,Sample,ACE,8021256,0.2
compound 1-0211-100-3 200x,18.942,18351057,0.466214077241094,12/02/2018,2,3,Sample,ACE,8031569,0.2
compound 1-0211-100-3 200x,18.947,18350549,0.466214077241094,12/02/2018,2,3,Sample,ACE,8023123,0.2
compound 1-0211-100-3 200x,18.943,18352650,0.466214077241094,12/02/2018,2,3,Sample,ACE,8011025,0.2
compound 1-0211-100-3 200x,18.943,18348201,0.466214077241094,12/02/2018,2,3,Sample,ACE,8033912,0.2
compound 1-0211-100-3 200x,18.943,18348201,0.466214077241094,12/02/2018,2,3,Sample,ACE,8000856,0.2
0.8 mg/ml compound 1,18.950,31285035,0.813941697386764,12/02/2018,1,1,Calibration,THC,1175695,0.3
0.6 mg/ml compound 1,18.965,23799618,0.612960681043829,12/02/2018,2,1,Calibration,THC,1156978,0.3
0.4 mg/ml compound 1,18.923,15866617,0.406306764327968,12/02/2018,3,1,Calibration,THC,1159325,0.3
0.2 mg/ml compound 1,18.894,8000115,0.204248166773677,12/02/2018,4,1,Calibration,THC,1159965,0.3
0.1 mg/ml compound 1,18.820,3932841,0.100684206794816,12/02/2018,5,1,Calibration,THC,1162254,0.3
compound 1-0211-100-3 200x,18.946,18349545,0.466214077241094,12/02/2018,2,3,Sample,THC,1183545,0.3
compound 1-0211-100-3 200x,18.942,18351057,0.466214077241094,12/02/2018,2,3,Sample,THC,1165654,0.3
compound 1-0211-100-3 200x,18.947,18350549,0.466214077241094,12/02/2018,2,3,Sample,THC,1169564,0.3
compound 1-0211-100-3 200x,18.943,18352650,0.466214077241094,12/02/2018,2,3,Sample,THC,1171235,0.3
compound 1-0211-100-3 200x,18.943,18348201,0.466214077241094,12/02/2018,2,3,Sample,THC,1149542,0.3
compound 1-0211-100-3 200x,18.943,18348201,0.466214077241094,12/02/2018,2,3,Sample,THC,1135863,0.3
