name,value,series,level,parallel,marker,row,analyte
change tr,0.1639744094857485,1,1,1,Sample,1,1
change rs,-1.7101710171017235,1,1,1,Sample,1,1
change n,-4.426953863192918,1,1,1,Sample,1,1
experimental concentration,0.3944803120309341,1,1,1,Sample,1,1
trueness,96.28176254703574,1,1,1,Sample,1,1
is area ratio,1.9010168539325842,1,1,1,Sample,1,1
change tr,0.1688523667473443,1,1,1,Sample,2,1
change rs,-1.7101710171017235,1,1,1,Sample,2,1
change n,-2.1350148297123446,1,1,1,Sample,2,1
experimental concentration,0.38615720494282546,1,1,1,Sample,2,1
trueness,94.25032169721186,1,1,1,Sample,2,1
is area ratio,1.8612168177454147,1,1,1,Sample,2,1
change tr,0.17429406468835393,1,2,1,Sample,3,1
change rs,-2.3779724655819794,1,2,1,Sample,3,1
change n,-4.096694414565364,1,2,1,Sample,3,1
experimental concentration,0.523689693630428,1,2,1,Sample,3,1
trueness,102.74177517448734,1,2,1,Sample,3,1
is area ratio,2.518879631491809,1,2,1,Sample,3,1
change tr,0.17917252451424323,1,2,1,Sample,4,1
change rs,-2.3779724655819794,1,2,1,Sample,4,1
change n,-4.096227958798898,1,2,1,Sample,4,1
experimental concentration,0.5243232007621287,1,2,1,Sample,4,1
trueness,102.86606184288691,1,2,1,Sample,4,1
is area ratio,2.5219089817692484,1,2,1,Sample,4,1
change tr,0.2040689575625519,1,3,0,Sample,5,1
change rs,-2.3779724655819794,1,3,0,Sample,5,1
change n,-3.1536940213052627,1,3,0,Sample,5,1
experimental concentration,0.655478588947625,1,3,0,Sample,5,1
trueness,107.50582812486363,1,3,0,Sample,5,1
is area ratio,3.1490773145404223,1,3,0,Sample,5,1
change tr,0.208948867417314,1,3,1,Sample,6,1
change rs,-2.3779724655819794,1,3,1,Sample,6,1
change n,-3.153230420032028,1,3,1,Sample,6,1
experimental concentration,0.6363838342393475,1,3,1,Sample,6,1
trueness,104.37407454455156,1,3,1,Sample,6,1
is area ratio,3.0577686337401526,1,3,1,Sample,6,1
change tr,-0.11406915442486551,1,1,1,Calibration,7,1
is area ratio,3.8880503921462917,1,1,1,Calibration,7,1
is expected concentration ratio,4.0605014461750795,1,1,1,Calibration,7,1
change tr,-0.09889968556109996,1,2,1,Calibration,8,1
is area ratio,2.935076403540118,1,2,1,Calibration,8,1
is expected concentration ratio,3.048572344311945,1,2,1,Calibration,8,1
change tr,-0.06432608444903437,1,3,1,Calibration,9,1
is area ratio,1.9828684843699775,1,3,1,Calibration,9,1
is expected concentration ratio,2.0420626035497,1,3,1,Calibration,9,1
is area ratio,0.9832685496181686,1,4,1,Calibration,10,1
is expected concentration ratio,1.013051723449985,1,4,1,Calibration,10,1
change tr,1.734638776817783e-14,1,5,1,Calibration,11,1
is area ratio,0.5004475771092494,1,5,1,Calibration,11,1
is expected concentration ratio,0.51823799343361,1,5,1,Calibration,11,1
change tr,0.1639744094857485,2/16/19 16:00,1,1,Sample,12,1
change rs,17.82178217821781,2/16/19 16:00,1,1,Sample,12,1
change n,43.311830420926505,2/16/19 16:00,1,1,Sample,12,1
experimental concentration,4.847202020039902,2/16/19 16:00,1,1,Sample,12,1
trueness,950.9641801729064,2/16/19 16:00,1,1,Sample,12,1
is area ratio,15.5032937964353,2/16/19 16:00,1,1,Sample,12,1
change tr,0.17429406468835393,2/16/19 16:00,2,1,Sample,13,1
change rs,17.02127659574468,2/16/19 16:00,2,1,Sample,13,1
change n,40.03002109312976,2/16/19 16:00,2,1,Sample,13,1
experimental concentration,5.19609949007232,2/16/19 16:00,2,1,Sample,13,1
trueness,1019.4137713354072,2/16/19 16:00,2,1,Sample,13,1
is area ratio,16.618418846339342,2/16/19 16:00,2,1,Sample,13,1
change tr,0.2040689575625519,2/16/19 16:00,3,1,Sample,14,1
change rs,17.02127659574468,2/16/19 16:00,3,1,Sample,14,1
change n,39.17310222500795,2/16/19 16:00,3,1,Sample,14,1
experimental concentration,4.645815340716669,2/16/19 16:00,3,1,Sample,14,1
trueness,911.4544758922531,2/16/19 16:00,3,1,Sample,14,1
is area ratio,14.859633838656114,2/16/19 16:00,3,1,Sample,14,1
change tr,0.1639744094857485,2/17/19 8:35,1,1,Sample,15,1
change rs,-5.490549054905506,2/17/19 8:35,1,1,Sample,15,1
change n,-13.947977000817694,2/17/19 8:35,1,1,Sample,15,1
experimental concentration,5.111072676301629,2/17/19 8:35,1,1,Sample,15,1
trueness,1002.7325078114467,2/17/19 8:35,1,1,Sample,15,1
is area ratio,16.316996633519114,2/17/19 8:35,1,1,Sample,15,1
change tr,0.17429406468835393,2/17/19 8:35,2,1,Sample,16,1
change rs,-6.1326658322903675,2/17/19 8:35,2,1,Sample,16,1
change n,-15.918549359882753,2/17/19 8:35,2,1,Sample,16,1
experimental concentration,5.020238823784522,2/17/19 8:35,2,1,Sample,16,1
trueness,984.911971400182,2/17/19 8:35,2,1,Sample,16,1
is area ratio,16.026742003038922,2/17/19 8:35,2,1,Sample,16,1
change tr,-0.15216446183464818,2/17/19 8:35,3,1,Sample,17,1
change rs,-6.1326658322903675,2/17/19 8:35,3,1,Sample,17,1
change n,-16.433088891835336,2/17/19 8:35,3,1,Sample,17,1
experimental concentration,5.966868265383449,2/17/19 8:35,3,1,Sample,17,1
trueness,1170.6295641755394,2/17/19 8:35,3,1,Sample,17,1
is area ratio,19.051644846626026,2/17/19 8:35,3,1,Sample,17,1
change tr,0.2615335547175432,2/17/19 12:00,1,1,Sample,18,1
change rs,-1.7101710171017235,2/17/19 12:00,1,1,Sample,18,1
change n,-4.426953863192918,2/17/19 12:00,1,1,Sample,18,1
experimental concentration,-25.951566468370775,2/17/19 12:00,1,1,Sample,18,1
trueness,-5091.392937361778,2/17/19 12:00,1,1,Sample,18,1
is area ratio,14.57105539036455,2/17/19 12:00,1,1,Sample,18,1
change tr,-0.11894711168646131,2/17/19 14:00,1,1,Sample,19,1
change rs,-1.7101710171017235,2/17/19 14:00,1,1,Sample,19,1
change n,-4.426953863192918,2/17/19 14:00,1,1,Sample,19,1
experimental concentration,0.43397989357814987,2/17/19 14:00,1,1,Sample,19,1
trueness,85.14176467203922,2/17/19 14:00,1,1,Sample,19,1
is area ratio,13.81668125899908,2/17/19 14:00,1,1,Sample,19,1
change tr,-0.11894711168646131,2/17/19 17:00,1,1,Sample,20,1
change rs,-5.490549054905506,2/17/19 17:00,1,1,Sample,20,1
change n,-13.947977000817694,2/17/19 17:00,1,1,Sample,20,1
experimental concentration,0.607778508046377,2/17/19 17:00,1,1,Sample,20,1
trueness,119.23901422748567,2/17/19 17:00,1,1,Sample,20,1
is area ratio,13.796969011342728,2/17/19 17:00,1,1,Sample,20,1
change tr,-0.10865660521287855,2/17/19 17:00,2,1,Sample,21,1
change rs,-6.1326658322903675,2/17/19 17:00,2,1,Sample,21,1
change n,-15.918549359882753,2/17/19 17:00,2,1,Sample,21,1
experimental concentration,0.6147823458830994,2/17/19 17:00,2,1,Sample,21,1
trueness,120.61308505823018,2/17/19 17:00,2,1,Sample,21,1
is area ratio,14.05733152855659,2/17/19 17:00,2,1,Sample,21,1
change tr,-0.07896581401330334,2/17/19 17:00,3,1,Sample,22,1
change rs,-6.1326658322903675,2/17/19 17:00,3,1,Sample,22,1
change n,-16.433088891835336,2/17/19 17:00,3,1,Sample,22,1
experimental concentration,0.619336302661434,2/17/19 17:00,3,1,Sample,22,1
trueness,121.50651796165519,2/17/19 17:00,3,1,Sample,22,1
is area ratio,14.226621520377018,2/17/19 17:00,3,1,Sample,22,1
change tr,-0.11406915442486551,2/16/19 16:00,1,1,Calibration,23,1
is area ratio,3.898519975031211,2/16/19 16:00,1,1,Calibration,23,1
is expected concentration ratio,4.0605014461750795,2/16/19 16:00,1,1,Calibration,23,1
change tr,-0.09889968556109996,2/16/19 16:00,2,1,Calibration,24,1
is area ratio,2.9361827159262353,2/16/19 16:00,2,1,Calibration,24,1
is expected concentration ratio,3.048572344311945,2/16/19 16:00,2,1,Calibration,24,1
change tr,-0.06432608444903437,2/16/19 16:00,3,1,Calibration,25,1
is area ratio,1.9781299753493524,2/16/19 16:00,3,1,Calibration,25,1
is expected concentration ratio,2.0420626035497,2/16/19 16:00,3,1,Calibration,25,1
is area ratio,0.9849043128984989,2/16/19 16:00,4,1,Calibration,26,1
is expected concentration ratio,1.013051723449985,2/16/19 16:00,4,1,Calibration,26,1
change tr,1.734638776817783e-14,2/16/19 16:00,5,1,Calibration,27,1
is area ratio,0.4998161269979493,2/16/19 16:00,5,1,Calibration,27,1
is expected concentration ratio,0.51823799343361,2/16/19 16:00,5,1,Calibration,27,1
change tr,-0.11406915442486551,2/17/19 8:35,1,1,Calibration,28,1
is area ratio,3.8930492930284233,2/17/19 8:35,1,1,Calibration,28,1
is expected concentration ratio,4.0605014461750795,2/17/19 8:35,1,1,Calibration,28,1
change tr,-0.09889968556109996,2/17/19 8:35,2,1,Calibration,29,1
is area ratio,2.9319898764487986,2/17/19 8:35,2,1,Calibration,29,1
is expected concentration ratio,3.048572344311945,2/17/19 8:35,2,1,Calibration,29,1
change tr,-0.06432608444903437,2/17/19 8:35,3,1,Calibration,30,1
is area ratio,1.8552387891847102,2/17/19 8:35,3,1,Calibration,30,1
is expected concentration ratio,2.0420626035497,2/17/19 8:35,3,1,Calibration,30,1
is area ratio,0.9860776866880331,2/17/19 8:35,4,1,Calibration,31,1
is expected concentration ratio,1.013051723449985,2/17/19 8:35,4,1,Calibration,31,1
change tr,1.734638776817783e-14,2/17/19 8:35,5,1,Calibration,32,1
is area ratio,0.49838845633360185,2/17/19 8:35,5,1,Calibration,32,1
is expected concentration ratio,0.51823799343361,2/17/19 8:35,5,1,Calibration,32,1
change tr,-0.11406915442486551,2/17/19 12:00,1,1,Calibration,33,1
is area ratio,3.77798888018982,2/17/19 12:00,1,1,Calibration,33,1
is expected concentration ratio,4.0605014461750795,2/17/19 12:00,1,1,Calibration,33,1
change tr,-0.09889968556109996,2/17/19 12:00,2,1,Calibration,34,1
is area ratio,20.029411539557454,2/17/19 12:00,2,1,Calibration,34,1
is expected concentration ratio,2.03238156287463,2/17/19 12:00,2,1,Calibration,34,1
change tr,-0.06432608444903437,2/17/19 12:00,3,1,Calibration,35,1
is area ratio,13.72956875584497,2/17/19 12:00,3,1,Calibration,35,1
is expected concentration ratio,1.3613750690331334,2/17/19 12:00,3,1,Calibration,35,1
is area ratio,6.813872727664805,2/17/19 12:00,4,1,Calibration,36,1
is expected concentration ratio,0.6753678156333234,2/17/19 12:00,4,1,Calibration,36,1
change tr,1.734638776817783e-14,2/17/19 12:00,5,1,Calibration,37,1
is area ratio,3.4518360467772733,2/17/19 12:00,5,1,Calibration,37,1
is expected concentration ratio,0.3454919956224067,2/17/19 12:00,5,1,Calibration,37,1
change tr,-0.11406915442486551,2/17/19 14:00,1,1,Calibration,38,1
is area ratio,26.867745776740712,2/17/19 14:00,1,1,Calibration,38,1
is expected concentration ratio,2.70700096411672,2/17/19 14:00,1,1,Calibration,38,1
change tr,-0.09889968556109996,2/17/19 14:00,2,1,Calibration,39,1
is area ratio,17.361806268456206,2/17/19 14:00,2,1,Calibration,39,1
is expected concentration ratio,2.03238156287463,2/17/19 14:00,2,1,Calibration,39,1
change tr,-0.06432608444903437,2/17/19 14:00,3,1,Calibration,40,1
is area ratio,13.62737913651907,2/17/19 14:00,3,1,Calibration,40,1
is expected concentration ratio,1.3613750690331334,2/17/19 14:00,3,1,Calibration,40,1
is area ratio,6.754220376140169,2/17/19 14:00,4,1,Calibration,41,1
is expected concentration ratio,0.6753678156333234,2/17/19 14:00,4,1,Calibration,41,1
change tr,1.734638776817783e-14,2/17/19 14:00,5,1,Calibration,42,1
is area ratio,3.418621369750733,2/17/19 14:00,5,1,Calibration,42,1
is expected concentration ratio,0.3454919956224067,2/17/19 14:00,5,1,Calibration,42,1
change tr,-0.11406915442486551,2/17/19 17:00,1,1,Calibration,43,1
is area ratio,27.164857830335908,2/17/19 17:00,1,1,Calibration,43,1
is expected concentration ratio,2.70700096411672,2/17/19 17:00,1,1,Calibration,43,1
change tr,-0.09889968556109996,2/17/19 17:00,2,1,Calibration,44,1
is area ratio,18.09063152862625,2/17/19 17:00,2,1,Calibration,44,1
is expected concentration ratio,2.03238156287463,2/17/19 17:00,2,1,Calibration,44,1
change tr,-0.06432608444903437,2/17/19 17:00,3,1,Calibration,45,1
is area ratio,1.9831222222222222,2/17/19 17:00,3,1,Calibration,45,1
is expected concentration ratio,2.0420626035497,2/17/19 17:00,3,1,Calibration,45,1
is area ratio,0.9849619082056333,2/17/19 17:00,4,1,Calibration,46,1
is expected concentration ratio,1.013051723449985,2/17/19 17:00,4,1,Calibration,46,1
change tr,1.734638776817783e-14,2/17/19 17:00,5,1,Calibration,47,1
is area ratio,0.4986179074906463,2/17/19 17:00,5,1,Calibration,47,1
is expected concentration ratio,0.51823799343361,2/17/19 17:00,5,1,Calibration,47,1
mean tr,20.500384615384615,,1,,Sample,,1
rsd tr,0.15382381848571102,,1,,Sample,,1
mean rs,1.5871428571428574,,1,,Sample,,1
rsd rs,8.058193733579798,,1,,Sample,,1
mean n,209473.2857142857,,1,,Sample,,1
rsd n,19.69923361066525,,1,,Sample,,1
mean tr,20.49827272727273,,2,,Sample,,1
rsd tr,0.13918735617090563,,2,,Sample,,1
mean rs,1.598,,2,,Sample,,1
rsd rs,9.698615151969649,,2,,Sample,,1
mean n,214382.6,,2,,Sample,,1
rsd n,23.14500488647193,,2,,Sample,,1
mean tr,20.492181818181813,,3,,Sample,,1
rsd tr,0.1345974004755623,,3,,Sample,,1
mean rs,1.598,,3,,Sample,,1
rsd rs,9.698615151969649,,3,,Sample,,1
mean n,215702.6,,3,,Sample,,1
rsd n,22.882927080285637,,3,,Sample,,1
mean tr,20.48,,4,,Sample,,1
rsd tr,0.0,,4,,Sample,,1
mean tr,20.480999999999998,,5,,Sample,,1
rsd tr,190.0201574372538e-16,,5,,Sample,,1
slope,0.9563744828907137,1,,,Calibration,,1
intercept,0.014662331786824634,1,,,Calibration,,1
slope,0.9588419054461167,2/16/19 16:00,,,Calibration,,1
intercept,0.01095905984421125,2/16/19 16:00,,,Calibration,,1
slope,-0.05680845662566392,2/17/19 12:00,,,Calibration,,1
intercept,9.656827263409633,2/17/19 12:00,,,Calibration,,1
slope,9.459738010883912,2/17/19 14:00,,,Calibration,,1
intercept,0.1322276081971503,2/17/19 14:00,,,Calibration,,1
slope,11.15227921963299,2/17/19 17:00,,,Calibration,,1
intercept,-8.796749740074443,2/17/19 17:00,,,Calibration,,1
slope,0.9586336671964757,2/17/19 8:35,,,Calibration,,1
intercept,-0.015157843116673564,2/17/19 8:35,,,Calibration,,1
mean area,16658910.714285715,,1,,Sample,,1
rsd area,8.923207439089909,,1,,Sample,,1
mean change tr,0.09777356093560148,,1,,Sample,,1
rsd change tr,155.64555872170867,,1,,Sample,,1
mean change rs,-1.3703324189659075e-14,,1,,Sample,,1
rsd change rs,-58804663905278880,,1,,Sample,,1
mean change n,3.045183153257572e-15,,1,,Sample,,1
rsd change n,646898154207640300,,1,,Sample,,1
mean experimental concentration,-2.0244136933472796,,1,,Sample,,1
rsd experimental concentration,-531.7457437019794,,1,,Sample,,1
mean trueness,-391.826198033379,,1,,Sample,,1
rsd trueness,-539.3542449426272,,1,,Sample,,1
mean area,18893614.6,,2,,Sample,,1
rsd area,008.862180176527273,,2,,Sample,,1
mean change tr,0.11867962267328529,,2,,Sample,,1
rsd change tr,107.09704619691263,,2,,Sample,,1
mean change rs,-2.842170943040401e-15,,2,,Sample,,1
rsd change rs,-341239684253284100,,2,,Sample,,1
mean change n,-1.4210854715202005e-15,,2,,Sample,,1
rsd change n,-1.6286849278469262e+18,,2,,Sample,,1
mean experimental concentration,2.3758267108265,,2,,Sample,,1
rsd experimental concentration,105.02979951083913,,2,,Sample,,1
mean trueness,466.10933296223874,,2,,Sample,,1
rsd trueness,105.02979951083913,,2,,Sample,,1
mean area,21137881.4,,3,,Sample,,1
rsd area,19.829680272303918,,3,,Sample,,1
mean change tr,0.07719130133889326,,3,,Sample,,1
rsd change tr,230.4221455800281,,3,,Sample,,1
mean change rs,-2.842170943040401e-15,,3,,Sample,,1
rsd change rs,-341239684253284100,,3,,Sample,,1
mean change n,-1.4210854715202005e-15,,3,,Sample,,1
rsd change n,-1.6102428417487596e+18,,3,,Sample,,1
mean experimental concentration,2.5047764663897047,,3,,Sample,,1
rsd experimental concentration,103.79362637312728,,3,,Sample,,1
mean trueness,483.0940921397726,,3,,Sample,,1
rsd trueness,107.1326690300828,,3,,Sample,,1
