name,value,series,level,parallel,marker,row,analyte
experimental concentration,0.39382378211291325,1,1,1,Default,1,1
trueness,0.9612152170422544,1,1,1,Default,1,1
experimental concentration,0.38601291509303537,1,1,1,Default,2,1
trueness,0.9421510452506981,1,1,1,Default,2,1
experimental concentration,0.5240048991108779,1,2,1,Default,3,1
trueness,1.028036147924902,1,2,1,Default,3,1
experimental concentration,0.5240048991108779,1,2,1,Default,4,1
trueness,1.0280361479249,1,2,1,Default,4,1
experimental concentration,0.6541860161088426,1,3,0,Default,5,1
trueness,1.0729383170608187,1,3,0,Default,5,1
experimental concentration,0.6359606597291275,1,3,1,Default,6,1
trueness,1.0430466918649772,1,3,1,Default,6,1
experimental concentration,0.47193245231169206,2/16/19 16:00,1,1,pH: 2.3,12,1
trueness,0.9258761152395357,2/16/19 16:00,1,1,pH: 2.3,12,1
change tr,-0.0024349265869750294,2/16/19 16:00,1,1,pH: 2.3,12,1
change rs,19.871794871794876,2/16/19 16:00,1,1,pH: 2.3,12,1
change n,48.17337568268588,2/16/19 16:00,1,1,pH: 2.3,12,1
experimental concentration,0.497968675711285,2/16/19 16:00,2,1,pH: 2.3,13,1
trueness,0.9769561315822191,2/16/19 16:00,2,1,pH: 2.3,13,1
change tr,-0.0024349265869750294,2/16/19 16:00,2,1,pH: 2.3,13,1
change rs,19.871794871794876,2/16/19 16:00,2,1,pH: 2.3,13,1
change n,46.011318065860735,2/16/19 16:00,2,1,pH: 2.3,13,1
experimental concentration,0.4458962289120991,2/16/19 16:00,3,1,pH: 2.3,14,1
trueness,0.8747960988968525,2/16/19 16:00,3,1,pH: 2.3,14,1
change tr,-0.0024349265869750294,2/16/19 16:00,3,1,pH: 2.3,14,1
change rs,19.871794871794876,2/16/19 16:00,3,1,pH: 2.3,14,1
change n,43.70477811206771,2/16/19 16:00,3,1,pH: 2.3,14,1
experimental concentration,0.49526586927396754,2/17/19 8:35,1,1,pH: 5,15,1
trueness,0.9716535423829173,2/17/19 8:35,1,1,pH: 5,15,1
change tr,-0.0024349265869750294,2/17/19 8:35,1,1,pH: 5,15,1
change rs,-3.8461538461538494,2/17/19 8:35,1,1,pH: 5,15,1
change n,-11.028847411531562,2/17/19 8:35,1,1,pH: 5,15,1
experimental concentration,0.48746638372105305,2/17/19 8:35,2,1,pH: 5,16,1
trueness,0.9563518665832842,2/17/19 8:35,2,1,pH: 5,16,1
change tr,-0.0024349265869750294,2/17/19 8:35,2,1,pH: 5,16,1
change rs,-3.8461538461538494,2/17/19 8:35,2,1,pH: 5,16,1
change n,-12.327061461426407,2/17/19 8:35,2,1,pH: 5,16,1
experimental concentration,0.5894143433248945,2/17/19 8:35,3,1,pH: 5,17,1
trueness,1.1563618051502136,2/17/19 8:35,3,1,pH: 5,17,1
change tr,-0.3579342082836338,2/17/19 8:35,3,1,pH: 5,17,1
change rs,-3.8461538461538494,2/17/19 8:35,3,1,pH: 5,17,1
change n,-13.712030368524728,2/17/19 8:35,3,1,pH: 5,17,1
experimental concentration,0.4453301707014319,2/17/19 12:00,1,1,flow: 1.1,18,1
trueness,0.8736855590843755,2/17/19 12:00,1,1,flow: 1.1,18,1
change tr,0.09496213689155901,2/17/19 12:00,1,1,flow: 1.1,18,1
change n,-1.184844065044262,2/17/19 12:00,1,1,flow: 1.1,18,1
experimental concentration,0.4340039567021933,2/17/19 14:00,1,1,flow: 1.3,19,1
trueness,0.8514648557472365,2/17/19 14:00,1,1,flow: 1.3,19,1
change tr,-0.2848864106747289,2/17/19 14:00,1,1,flow: 1.3,19,1
change n,-1.184844065044262,2/17/19 14:00,1,1,flow: 1.3,19,1
experimental concentration,0.4340039567021933,2/17/19 17:00,1,1,pH: 5; columns: Eclipse B:24241; ,20,1
trueness,0.8514648557472365,2/17/19 17:00,1,1,pH: 5; columns: Eclipse B:24241; ,20,1
experimental concentration,0.4340039567021933,2/17/19 17:00,2,1,pH: 5; columns: Eclipse B:24241; ,21,1
trueness,0.8514648557472365,2/17/19 17:00,2,1,pH: 5; columns: Eclipse B:24241; ,21,1
experimental concentration,0.4340039567021933,2/17/19 17:00,3,1,pH: 5; columns: Eclipse B:24241; ,22,1
trueness,0.8514648557472365,2/17/19 17:00,3,1,pH: 5; columns: Eclipse B:24241; ,22,1
slope,38408028.10194179,1,,,Calibration,,1
intercept,101150.10939422855,1,,,Calibration,,1
slope,38408028.10194179,2/16/19 16:00,,,Calibration,,1
intercept,101150.10939422855,2/16/19 16:00,,,Calibration,,1
slope,37265973.1950361,2/17/19 12:00,,,Calibration,,1
intercept,389146.7956995894,2/17/19 12:00,,,Calibration,,1
slope,36783841.83932663,2/17/19 14:00,,,Calibration,,1
intercept,195160.0990245589,2/17/19 14:00,,,Calibration,,1
slope,36783841.83932663,2/17/19 17:00,,,Calibration,,1
intercept,195160.0990245589,2/17/19 17:00,,,Calibration,,1
slope,38464075.35018722,2/17/19 8:35,,,Calibration,,1
intercept,-122798.71412986005,2/17/19 8:35,,,Calibration,,1
mean tr,20.5345,,1,,Default,,1
rsd tr,3.443506202670684e-05,,1,,Default,,1
mean rs,1.56,,1,,Default,,1
rsd rs,0.0,,1,,Default,,1
mean n,202600.5,,1,,Default,,1
rsd n,0.01675622546082865,,1,,Default,,1
mean area,15077145.0,,1,,Default,,1
rsd area,0.014069774772078152,,1,,Default,,1
mean experimental concentration,0.3899183486029743,,1,,Default,,1
rsd experimental concentration,0.01416480413525191,,1,,Default,,1
mean trueness,0.9516831311464763,,1,,Default,,1
rsd trueness,0.014164804135253641,,1,,Default,,1
mean tr,20.5345,,2,,Default,,1
rsd tr,3.443506202670684e-05,,2,,Default,,1
mean rs,1.56,,2,,Default,,1
rsd rs,0.0,,2,,Default,,1
mean n,205600.5,,2,,Default,,1
rsd n,3.4392269531764152e-06,,2,,Default,,1
mean area,20227145.0,,2,,Default,,1
rsd area,0.0,,2,,Default,,1
mean experimental concentration,0.5240048991108779,,2,,Default,,1
rsd experimental concentration,0.0,,2,,Default,,1
mean trueness,1.028036147924901,,2,,Default,,1
rsd trueness,1.3830050572215205e-15,,2,,Default,,1
mean tr,20.5345,,3,,Default,,1
rsd tr,3.443506202670684e-05,,3,,Default,,1
mean rs,1.56,,3,,Default,,1
rsd rs,0.0,,3,,Default,,1
mean n,208900.5,,3,,Default,,1
rsd n,3.3848975047285553e-06,,3,,Default,,1
mean area,24877145.0,,3,,Default,,1
rsd area,0.01989676656346953,,3,,Default,,1
mean experimental concentration,0.645073337918985,,3,,Default,,1
rsd experimental concentration,0.019977996807638305,,3,,Default,,1
mean trueness,1.057992504462898,,3,,Default,,1
rsd trueness,0.01997799680763935,,3,,Default,,1
mean tr,20.534,,,,pH: 2.3,,1
rsd tr,0.0,,,,pH: 2.3,,1
mean rs,1.87,,,,pH: 2.3,,1
rsd rs,0.0,,,,pH: 2.3,,1
mean n,300200.0,,,,pH: 2.3,,1
rsd n,0.0,,,,pH: 2.3,,1
mean area,18227145.0,,,,pH: 2.3,,1
rsd area,0.054863227345807584,,,,pH: 2.3,,1
mean change tr,-0.0024349265869750294,,,,pH: 2.3,,1
rsd change tr,-0.0,,,,pH: 2.3,,1
mean change rs,19.871794871794876,,,,pH: 2.3,,1
rsd change rs,0.0,,,,pH: 2.3,,1
mean change n,45.96315728687144,,,,pH: 2.3,,1
rsd change n,0.04861911532400398,,,,pH: 2.3,,1
mean experimental concentration,0.47193245231169206,,,,pH: 2.3,,1
rsd experimental concentration,0.05516938551705505,,,,pH: 2.3,,1
mean trueness,0.9258761152395357,,,,pH: 2.3,,1
rsd trueness,0.055169385517055095,,,,pH: 2.3,,1
mean tr,20.509666666666664,,,,pH: 5,,1
rsd tr,0.0020549612207662847,,,,pH: 5,,1
mean rs,1.5,,,,pH: 5,,1
rsd rs,0.0,,,,pH: 5,,1
mean n,180256.0,,,,pH: 5,,1
rsd n,0.0,,,,pH: 5,,1
mean area,20034256.333333332,,,,pH: 5,,1
rsd area,0.10894047208550264,,,,pH: 5,,1
mean change tr,-0.12093468715252796,,,,pH: 5,,1
rsd change tr,-1.6971773013760523,,,,pH: 5,,1
mean change rs,-3.846153846153849,,,,pH: 5,,1
rsd change rs,-1.4141295537309379e-16,,,,pH: 5,,1
mean change n,-12.3559797471609,,,,pH: 5,,1
rsd change n,-0.10859723291773957,,,,pH: 5,,1
mean experimental concentration,0.5240488654399718,,,,pH: 5,,1
rsd experimental concentration,0.10827679627287527,,,,pH: 5,,1
mean trueness,1.0281224047054718,,,,pH: 5,,1
rsd trueness,0.1082767962728753,,,,pH: 5,,1 
