name,value,series,level,parallel,marker,row,analyte
experimental concentration,0.4738010474803077,11/2/18,2,3,Sample,6,1
trueness,101.627357604496,11/2/18,2,3,Sample,6,1
experimental concentration,0.4738010474803077,11/2/18,2,4,Sample,7,1
trueness,101.627357604496,11/2/18,2,4,Sample,7,1
experimental concentration,0.4738010474803077,11/2/18,2,5,Sample,8,1
trueness,101.627357604496,11/2/18,2,5,Sample,8,1
experimental concentration,0.3943337527825116,11/2/18,LoQ,1,Sample,9,1
trueness,101.71497366171076,11/2/18,LoQ,1,Sample,9,1
experimental concentration,0.3858627319644159,11/2/18,LoQ,2,Sample,10,1
trueness,101.47074523898227,11/2/18,LoQ,2,Sample,10,1
experimental concentration,0.3823109178940808,11/2/18,LoQ,3,Sample,11,1
trueness,101.75661141135706,11/2/18,LoQ,3,Sample,11,1
experimental concentration,0.3823109178940808,11/2/18,LoQ,4,Sample,12,1
trueness,101.75661141135706,11/2/18,LoQ,4,Sample,12,1
experimental concentration,0.3823109178940808,11/2/18,LoQ,5,Sample,13,1
trueness,101.75661141135706,11/2/18,LoQ,5,Sample,13,1
experimental concentration,0.471810542779147,11/2/18,2,1,Sample,14,1
trueness,101.58326641429456,11/2/18,2,1,Sample,14,1
experimental concentration,0.4778715007939073,11/2/18,2,2,Sample,15,1
trueness,101.41602161152565,11/2/18,2,2,Sample,15,1
experimental concentration,0.5536003317218287,11/2/18,3,1,Sample,16,1
trueness,101.43642129722654,11/2/18,3,1,Sample,16,1
experimental concentration,0.5598487729262744,11/2/18,3,2,Sample,17,1
trueness,101.6036623850964,11/2/18,3,2,Sample,17,1
experimental concentration,0.5519922427182177,11/2/18,3,3,Sample,18,1
trueness,101.24340673324619,11/2/18,3,3,Sample,18,1
experimental concentration,0.5519922427182177,11/2/18,3,4,Sample,19,1
trueness,101.24340673324619,11/2/18,3,4,Sample,19,1
experimental concentration,0.5519922427182177,11/2/18,3,5,Sample,20,1
trueness,101.24340673324619,11/2/18,3,5,Sample,20,1
experimental concentration,0.5536003317218287,11/2/18,4,1,Sample,21,1
trueness,101.43642129722654,11/2/18,4,1,Sample,21,1
experimental concentration,0.5598487729262744,11/2/18,4,2,Sample,22,1
trueness,101.6036623850964,11/2/18,4,2,Sample,22,1
experimental concentration,0.5519922427182177,11/2/18,4,3,Sample,23,1
trueness,101.24340673324619,11/2/18,4,3,Sample,23,1
experimental concentration,0.5519922427182177,11/2/18,4,4,Sample,24,1
trueness,101.24340673324619,11/2/18,4,4,Sample,24,1
experimental concentration,0.5519922427182177,11/2/18,4,5,Sample,25,1
trueness,101.24340673324619,11/2/18,4,5,Sample,25,1
experimental concentration,0.4177377385201164,11/6/18,LoQ,1,Sample,31,1
trueness,101.57879774068368,11/6/18,LoQ,1,Sample,31,1
experimental concentration,0.4207238222417653,11/6/18,LoQ,2,Sample,32,1
trueness,101.73520226506756,11/6/18,LoQ,2,Sample,32,1
experimental concentration,0.4210960727050188,11/6/18,LoQ,3,Sample,33,1
trueness,101.8290785759808,11/6/18,LoQ,3,Sample,33,1
experimental concentration,0.5258573598531284,11/6/18,2,1,Sample,34,1
trueness,101.4753582477287,11/6/18,2,1,Sample,34,1
experimental concentration,0.5274727932326211,11/6/18,2,2,Sample,35,1
trueness,102.00453654297175,11/6/18,2,2,Sample,35,1
experimental concentration,0.5292454502494041,11/6/18,2,3,Sample,36,1
trueness,102.11990204329328,11/6/18,2,3,Sample,36,1
experimental concentration,0.631772250513526,11/6/18,3,1,Sample,37,1
trueness,101.3104900534583,11/6/18,3,1,Sample,37,1
experimental concentration,0.6323591393404532,11/6/18,3,2,Sample,38,1
trueness,100.75480795635796,11/6/18,3,2,Sample,38,1
experimental concentration,0.6404266464756513,11/6/18,3,3,Sample,39,1
trueness,102.19248733111993,11/6/18,3,3,Sample,39,1
experimental concentration,0.41745735678096835,11/15/18,LoQ,1,Sample,45,1
trueness,101.5106189831886,11/15/18,LoQ,1,Sample,45,1
experimental concentration,0.42077416335228934,11/15/18,LoQ,2,Sample,46,1
trueness,101.74737524598916,11/15/18,LoQ,2,Sample,46,1
experimental concentration,0.42268660206965963,11/15/18,LoQ,3,Sample,47,1
trueness,102.21369897533292,11/15/18,LoQ,3,Sample,47,1
experimental concentration,0.5312184951659692,11/15/18,2,1,Sample,48,1
trueness,102.50990329362672,11/15/18,2,1,Sample,48,1
experimental concentration,0.5290724594522577,11/15/18,2,2,Sample,49,1
trueness,102.31388560030885,11/15/18,2,2,Sample,49,1
experimental concentration,0.5308916624536341,11/15/18,2,3,Sample,50,1
trueness,102.4375448854929,11/15/18,2,3,Sample,50,1
experimental concentration,0.6329861253506177,11/15/18,3,1,Sample,51,1
trueness,101.50514604619833,11/15/18,3,1,Sample,51,1
experimental concentration,0.6334501168878218,11/15/18,3,2,Sample,52,1
trueness,100.92863517957873,11/15/18,3,2,Sample,52,1
experimental concentration,0.6432997243447814,11/15/18,3,3,Sample,53,1
trueness,102.65094260520662,11/15/18,3,3,Sample,53,1
experimental concentration,0.4738010474803077,11/2/18,2,3,Sample,59,2
trueness,101.627357604496,11/2/18,2,3,Sample,59,2
experimental concentration,0.4738010474803077,11/2/18,2,4,Sample,60,2
trueness,101.627357604496,11/2/18,2,4,Sample,60,2
experimental concentration,0.4738010474803077,11/2/18,2,5,Sample,61,2
trueness,101.627357604496,11/2/18,2,5,Sample,61,2
experimental concentration,0.3943337527825116,11/2/18,LoQ,1,Sample,62,2
trueness,101.71497366171076,11/2/18,LoQ,1,Sample,62,2
experimental concentration,0.3858627319644159,11/2/18,LoQ,2,Sample,63,2
trueness,101.47074523898227,11/2/18,LoQ,2,Sample,63,2
experimental concentration,0.3823109178940808,11/2/18,LoQ,3,Sample,64,2
trueness,101.75661141135706,11/2/18,LoQ,3,Sample,64,2
experimental concentration,0.4738010474803077,11/2/18,LoQ,4,Sample,65,2
trueness,101.627357604496,11/2/18,LoQ,4,Sample,65,2
experimental concentration,0.4738010474803077,11/2/18,LoQ,5,Sample,66,2
trueness,101.627357604496,11/2/18,LoQ,5,Sample,66,2
experimental concentration,0.471810542779147,11/2/18,2,1,Sample,67,2
trueness,101.58326641429456,11/2/18,2,1,Sample,67,2
experimental concentration,0.4778715007939073,11/2/18,2,2,Sample,68,2
trueness,101.41602161152565,11/2/18,2,2,Sample,68,2
experimental concentration,0.5536003317218287,11/2/18,3,1,Sample,69,2
trueness,101.43642129722654,11/2/18,3,1,Sample,69,2
experimental concentration,0.5598487729262744,11/2/18,3,2,Sample,70,2
trueness,101.6036623850964,11/2/18,3,2,Sample,70,2
experimental concentration,0.5519922427182177,11/2/18,3,3,Sample,71,2
trueness,101.24340673324619,11/2/18,3,3,Sample,71,2
experimental concentration,0.4738010474803077,11/2/18,3,4,Sample,72,2
trueness,101.627357604496,11/2/18,3,4,Sample,72,2
experimental concentration,0.4738010474803077,11/2/18,3,5,Sample,73,2
trueness,101.627357604496,11/2/18,3,5,Sample,73,2
experimental concentration,0.5536003317218287,11/2/18,4,1,Sample,74,2
trueness,101.43642129722654,11/2/18,4,1,Sample,74,2
experimental concentration,0.5598487729262744,11/2/18,4,2,Sample,75,2
trueness,101.6036623850964,11/2/18,4,2,Sample,75,2
experimental concentration,0.5519922427182177,11/2/18,4,3,Sample,76,2
trueness,101.24340673324619,11/2/18,4,3,Sample,76,2
experimental concentration,0.4738010474803077,11/2/18,4,4,Sample,77,2
trueness,101.627357604496,11/2/18,4,4,Sample,77,2
experimental concentration,0.4738010474803077,11/2/18,4,5,Sample,78,2
trueness,101.627357604496,11/2/18,4,5,Sample,78,2
experimental concentration,0.4177377385201164,11/6/18,LoQ,1,Sample,84,2
trueness,101.57879774068368,11/6/18,LoQ,1,Sample,84,2
experimental concentration,0.4207238222417653,11/6/18,LoQ,2,Sample,85,2
trueness,101.73520226506756,11/6/18,LoQ,2,Sample,85,2
experimental concentration,0.4210960727050188,11/6/18,LoQ,3,Sample,86,2
trueness,101.8290785759808,11/6/18,LoQ,3,Sample,86,2
experimental concentration,0.5258573598531284,11/6/18,2,1,Sample,87,2
trueness,101.4753582477287,11/6/18,2,1,Sample,87,2
experimental concentration,0.5274727932326211,11/6/18,2,2,Sample,88,2
trueness,102.00453654297175,11/6/18,2,2,Sample,88,2
experimental concentration,0.5292454502494041,11/6/18,2,3,Sample,89,2
trueness,102.11990204329328,11/6/18,2,3,Sample,89,2
experimental concentration,0.631772250513526,11/6/18,3,1,Sample,90,2
trueness,101.3104900534583,11/6/18,3,1,Sample,90,2
experimental concentration,0.6323591393404532,11/6/18,3,2,Sample,91,2
trueness,100.75480795635796,11/6/18,3,2,Sample,91,2
experimental concentration,0.6404266464756513,11/6/18,3,3,Sample,92,2
trueness,102.19248733111993,11/6/18,3,3,Sample,92,2
experimental concentration,0.41745735678096835,11/15/18,LoQ,1,Sample,98,2
trueness,101.5106189831886,11/15/18,LoQ,1,Sample,98,2
experimental concentration,0.42077416335228934,11/15/18,LoQ,2,Sample,99,2
trueness,101.74737524598916,11/15/18,LoQ,2,Sample,99,2
experimental concentration,0.42268660206965963,11/15/18,LoQ,3,Sample,100,2
trueness,102.21369897533292,11/15/18,LoQ,3,Sample,100,2
experimental concentration,0.5312184951659692,11/15/18,2,1,Sample,101,2
trueness,102.50990329362672,11/15/18,2,1,Sample,101,2
experimental concentration,0.5290724594522577,11/15/18,2,2,Sample,102,2
trueness,102.31388560030885,11/15/18,2,2,Sample,102,2
experimental concentration,0.5308916624536341,11/15/18,2,3,Sample,103,2
trueness,102.4375448854929,11/15/18,2,3,Sample,103,2
slope,38408028.10194179,11/15/18,,,Calibration,,1
intercept,101150.10939422855,11/15/18,,,Calibration,,1
mean trueness,101.8238977348369,11/15/18,LoQ,,Sample,,1
sd trueness,0.35773193499183104,11/15/18,LoQ,,Sample,,1
rsd trueness,0.35132414192531993,11/15/18,LoQ,,Sample,,1
mean trueness,102.42044459314282,11/15/18,2,,Sample,,1
sd trueness,0.09912138529226759,11/15/18,2,,Sample,,1
rsd trueness,0.09677890550662957,11/15/18,2,,Sample,,1
mean trueness,101.69490794366124,11/15/18,3,,Sample,,1
sd trueness,0.8766943027017917,11/15/18,3,,Sample,,1
rsd trueness,0.8620827929629265,11/15/18,3,,Sample,,1
slope,38392775.43802699,11/2/18,,,Calibration,,1
intercept,159007.78178658383,11/2/18,,,Calibration,,1
mean trueness,101.69111062695285,11/2/18,LoQ,,Sample,,1
sd trueness,0.12450040854950858,11/2/18,LoQ,,Sample,,1
rsd trueness,0.12242998211144545,11/2/18,LoQ,,Sample,,1
mean trueness,101.57627216786163,11/2/18,2,,Sample,,1
sd trueness,0.09159465841074961,11/2/18,2,,Sample,,1
rsd trueness,0.09017328206274716,11/2/18,2,,Sample,,1
mean trueness,101.3540607764123,11/2/18,3,,Sample,,1
sd trueness,0.16264775609696114,11/2/18,3,,Sample,,1
rsd trueness,0.16047482937636126,11/2/18,3,,Sample,,1
mean trueness,101.3540607764123,11/2/18,4,,Sample,,1
sd trueness,0.16264775609696114,11/2/18,4,,Sample,,1
rsd trueness,0.16047482937636126,11/2/18,4,,Sample,,1
slope,38613786.73479762,11/6/18,,,Calibration,,1
intercept,85381.0537075717,11/6/18,,,Calibration,,1
mean trueness,101.71435952724401,11/6/18,LoQ,,Sample,,1
sd trueness,0.12643551288796023,11/6/18,LoQ,,Sample,,1
rsd trueness,0.12430448707106561,11/6/18,LoQ,,Sample,,1
mean trueness,101.86659894466459,11/6/18,2,,Sample,,1
sd trueness,0.34369937717467464,11/6/18,2,,Sample,,1
rsd trueness,0.33740144535636955,11/6/18,2,,Sample,,1
mean trueness,101.41926178031207,11/6/18,3,,Sample,,1
sd trueness,0.7249854912865882,11/6/18,3,,Sample,,1
rsd trueness,0.7148400398111805,11/6/18,3,,Sample,,1
mean trueness,101.7336659019097,,LoQ,,Sample,,1
sd trueness,0.19609076363820135,,LoQ,,Sample,,1
rsd trueness,0.19274913756402877,,LoQ,,Sample,,1
mean trueness,101.8856810411573,,2,,Sample,,1
sd trueness,0.403378823287639,,2,,Sample,,1
rsd trueness,0.3959131638180755,,2,,Sample,,1
mean trueness,101.46480118672558,,3,,Sample,,1
sd trueness,0.5404254768179196,,3,,Sample,,1
rsd trueness,0.5326236000042765,,3,,Sample,,1
mean trueness,101.3540607764123,,4,,Sample,,1
sd trueness,0.16264775609696114,,4,,Sample,,1
rsd trueness,0.16047482937636126,,4,,Sample,,1
slope,38408028.10194179,11/15/18,,,Calibration,,2
intercept,101150.10939422855,11/15/18,,,Calibration,,2
mean trueness,101.8238977348369,11/15/18,LoQ,,Sample,,2
sd trueness,0.35773193499183104,11/15/18,LoQ,,Sample,,2
rsd trueness,0.35132414192531993,11/15/18,LoQ,,Sample,,2
mean trueness,102.42044459314282,11/15/18,2,,Sample,,2
sd trueness,0.09912138529226759,11/15/18,2,,Sample,,2
rsd trueness,0.09677890550662957,11/15/18,2,,Sample,,2
mean trueness,101.69490794366124,11/15/18,3,,Sample,,2
sd trueness,0.8766943027017917,11/15/18,3,,Sample,,2
rsd trueness,0.8620827929629265,11/15/18,3,,Sample,,2
slope,38392775.43802699,11/2/18,,,Calibration,,2
intercept,159007.78178658383,11/2/18,,,Calibration,,2
mean trueness,101.63940910420843,11/2/18,LoQ,,Sample,,2
sd trueness,0.10975468085137381,11/2/18,LoQ,,Sample,,2
rsd trueness,0.10798437517365435,11/2/18,LoQ,,Sample,,2
mean trueness,101.57627216786163,11/2/18,2,,Sample,,2
sd trueness,0.09159465841074961,11/2/18,2,,Sample,,2
rsd trueness,0.09017328206274716,11/2/18,2,,Sample,,2
mean trueness,101.50764112491223,11/2/18,3,,Sample,,2
sd trueness,0.16791086249102433,11/2/18,3,,Sample,,2
rsd trueness,0.16541696825010277,11/2/18,3,,Sample,,2
mean trueness,101.50764112491223,11/2/18,4,,Sample,,2
sd trueness,0.16791086249102433,11/2/18,4,,Sample,,2
rsd trueness,0.16541696825010277,11/2/18,4,,Sample,,2
slope,38613786.73479762,11/6/18,,,Calibration,,2
intercept,85381.0537075717,11/6/18,,,Calibration,,2
mean trueness,101.71435952724401,11/6/18,LoQ,,Sample,,2
sd trueness,0.12643551288796023,11/6/18,LoQ,,Sample,,2
rsd trueness,0.12430448707106561,11/6/18,LoQ,,Sample,,2
mean trueness,101.86659894466459,11/6/18,2,,Sample,,2
sd trueness,0.34369937717467464,11/6/18,2,,Sample,,2
rsd trueness,0.33740144535636955,11/6/18,2,,Sample,,2
mean trueness,101.41926178031207,11/6/18,3,,Sample,,2
sd trueness,0.7249854912865882,11/6/18,3,,Sample,,2
rsd trueness,0.7148400398111805,11/6/18,3,,Sample,,2
mean trueness,101.71016520975314,,LoQ,,Sample,,2
sd trueness,0.19999767083202086,,LoQ,,Sample,,2
rsd trueness,0.19663488936388315,,LoQ,,Sample,,2
mean trueness,101.8856810411573,,2,,Sample,,2
sd trueness,0.403378823287639,,2,,Sample,,2
rsd trueness,0.3959131638180755,,2,,Sample,,2
mean trueness,101.53461043604374,,3,,Sample,,2
sd trueness,0.5312069733727698,,3,,Sample,,2
rsd trueness,0.5231782257217356,,3,,Sample,,2
mean trueness,101.50764112491223,,4,,Sample,,2
sd trueness,0.16791086249102433,,4,,Sample,,2
rsd trueness,0.16541696825010277,,4,,Sample,,2
experimental concentration,0.6334501168878218,11/15/18,3,2,Sample,105,2
trueness,100.92863517957873,11/15/18,3,2,Sample,105,2
experimental concentration,0.6432997243447814,11/15/18,3,3,Sample,106,2
trueness,102.65094260520662,11/15/18,3,3,Sample,106,2
experimental concentration,0.6329861253506177,11/15/18,3,1,Sample,104,2
trueness,101.50514604619833,11/15/18,3,1,Sample,104,2
