name,tr,area,expected concentration,level,series,marker,analyte,is area,is expected concentration
0.0008 mg/ml compound 1,20.471,20654,0.000850749,1,1,Calibration,ACE,10500,0.0005
0.0006 mg/ml compound 1,20.374,16135,0.00063926,2,1,Calibration,ACE,10490,0.0005
0.0004 mg/ml compound 1,20.547,10984,0.000427443,3,1,Calibration,ACE,10480,0.0005
0.0002 mg/ml compound 1,20.296,6352,0.000213851,4,1,Calibration,ACE,10470,0.0005
0.0001 mg/ml compound 1,20.706,3026,0.000107186,5,1,Calibration,ACE,10470,0.0005
0.00008 mg/ml compound 1,20.344,2775,8.5331E-05,6,1,Calibration,ACE,10470,0.0005
0.00006 mg/ml compound 1,20.386,1679,6.37767E-05,7,1,Calibration,ACE,10460,0.0005
0.00004 mg/ml compound 1,20.391,1091,4.21034E-05,8,1,Calibration,ACE,10460,0.0005
0.0008 mg/ml compound 1,20.471,20654,0.000850749,1,2,Calibration,ACE,10600,0.0005
0.0006 mg/ml compound 1,20.374,10135,0.00063926,2,2,Calibration,ACE,10650,0.0005
0.0004 mg/ml compound 1,20.547,10984,0.000427443,3,2,Calibration,ACE,10660,0.0005
0.0002 mg/ml compound 1,20.296,10352,0.000213851,4,2,Calibration,ACE,10670,0.0005
0.0001 mg/ml compound 1,20.706,3026,0.000107186,5,2,Calibration,ACE,10680,0.0005
0.00008 mg/ml compound 1,20.344,2775,8.5331E-05,6,2,Calibration,ACE,10690,0.0005
0.00006 mg/ml compound 1,20.386,1679,6.37767E-05,7,2,Calibration,ACE,10700,0.0005
0.00004 mg/ml compound 1,20.391,1091,4.21034E-05,8,2,Calibration,ACE,10710,0.0005
