name,tr,area,expected concentration,series,level,parallel,marker,analyte
1.0 mg/ml compound 1,18.979,38489473,1.019024673,11/14/18,1,1,Calibration,THC
0.8 mg/ml compound 1,18.95,31285035,0.813941697,11/14/18,2,1,Calibration,THC
0.6 mg/ml compound 1,18.965,23799618,0.612960681,11/14/18,3,1,Calibration,THC
0.4 mg/ml compound 1,18.923,15866617,0.406306764,11/14/18,4,1,Calibration,THC
0.2 mg/ml compound 1,18.894,8000115,0.204248167,11/14/18,5,1,Calibration,THC
0.1 mg/ml compound 1,18.82,3932841,0.100684207,11/14/18,6,1,Calibration,THC
0.08 mg/ml compound 1,18.868,3142822,0.078779525,11/14/18,7,1,Calibration,THC
0.06 mg/ml compound 1,18.872,2351487,0.060463607,11/14/18,8,1,Calibration,THC
1.0 mg/ml compound 1,18.979,38489473,1.019024673,12/14/18,1,1,Calibration,THC
0.8 mg/ml compound 1,18.95,31285035,0.813941697,12/14/18,2,1,Calibration,THC
0.6 mg/ml compound 1,18.965,23799618,0.612960681,12/14/18,3,1,Calibration,THC
0.4 mg/ml compound 1,18.923,15866617,0.406306764,12/14/18,4,1,Calibration,THC
0.2 mg/ml compound 1,18.894,8000115,0.204248167,12/14/18,5,1,Calibration,THC
0.1 mg/ml compound 1,18.82,3932841,0.100684207,12/14/18,6,1,Calibration,THC
0.08 mg/ml compound 1,18.868,3142822,0.078779525,12/14/18,7,1,Calibration,THC
0.06 mg/ml compound 1,18.872,2351487,0.060463607,12/14/18,8,1,Calibration,THC
1.0 mg/ml compound 1,18.979,38489473,1.019024673,13/14/18,1,1,Calibration,THC
0.8 mg/ml compound 1,18.95,31285035,0.813941697,13/14/18,2,1,Calibration,THC
0.6 mg/ml compound 1,18.965,23799618,0.612960681,13/14/18,3,1,Calibration,THC
0.4 mg/ml compound 1,18.923,15866617,0.406306764,13/14/18,4,1,Calibration,THC
0.2 mg/ml compound 1,18.894,8000115,0.204248167,13/14/18,5,1,Calibration,THC
0.1 mg/ml compound 1,18.82,3932841,0.100684207,13/14/18,6,1,Calibration,THC
0.08 mg/ml compound 1,18.868,3142822,0.078779525,13/14/18,7,1,Calibration,THC
0.06 mg/ml compound 1,18.872,2351487,0.060463607,13/14/18,8,1,Calibration,THC
1.0 mg/ml compound 1,18.979,38489473,1.019024673,11/14/18,1,1,Calibration,ACE
0.8 mg/ml compound 1,18.95,31285035,0.813941697,11/14/18,2,1,Calibration,ACE
0.6 mg/ml compound 1,18.965,23799618,0.612960681,11/14/18,3,1,Calibration,ACE
0.4 mg/ml compound 1,18.923,15866617,0.406306764,11/14/18,4,1,Calibration,ACE
0.2 mg/ml compound 1,18.894,8000115,0.204248167,11/14/18,5,1,Calibration,ACE
0.1 mg/ml compound 1,18.82,3932841,0.100684207,11/14/18,6,1,Calibration,ACE
0.08 mg/ml compound 1,18.868,3142822,0.078779525,11/14/18,7,1,Calibration,ACE
0.06 mg/ml compound 1,18.872,2351487,0.060463607,11/14/18,8,1,Calibration,ACE
1.0 mg/ml compound 1,18.979,38489473,1.019024673,12/14/18,1,1,Calibration,ACE
0.8 mg/ml compound 1,18.95,31285035,0.813941697,12/14/18,2,1,Calibration,ACE
0.6 mg/ml compound 1,18.965,23799618,0.612960681,12/14/18,3,1,Calibration,ACE
0.4 mg/ml compound 1,18.923,15866617,0.406306764,12/14/18,4,1,Calibration,ACE
0.2 mg/ml compound 1,18.894,8000115,0.204248167,12/14/18,5,1,Calibration,ACE
0.1 mg/ml compound 1,18.82,3932841,0.100684207,12/14/18,6,1,Calibration,ACE
0.08 mg/ml compound 1,18.868,3142822,0.078779525,12/14/18,7,1,Calibration,ACE
0.06 mg/ml compound 1,18.872,2351487,0.060463607,12/14/18,8,1,Calibration,ACE
1.0 mg/ml compound 1,18.979,38489473,1.019024673,13/14/18,1,1,Calibration,ACE
0.8 mg/ml compound 1,18.95,31285035,0.813941697,13/14/18,2,1,Calibration,ACE
0.6 mg/ml compound 1,18.965,23799618,0.612960681,13/14/18,3,1,Calibration,ACE
0.4 mg/ml compound 1,18.923,15866617,0.406306764,13/14/18,4,1,Calibration,ACE
0.2 mg/ml compound 1,18.894,8000115,0.204248167,13/14/18,5,1,Calibration,ACE
0.1 mg/ml compound 1,18.82,3932841,0.100684207,13/14/18,6,1,Calibration,ACE
0.08 mg/ml compound 1,18.868,3142822,0.078779525,13/14/18,7,1,Calibration,ACE
0.06 mg/ml compound 1,18.872,2351487,0.060463607,13/14/18,8,1,Calibration,ACE
