name,value,series,level,parallel,marker,row,analyte
is area ratio,1.9670476190476192,1,1,0,Calibration,1,1
is expected concentration ratio,1.701498,1,1,0,Calibration,1,1
is area ratio,1.5381315538608198,1,2,0,Calibration,2,1
is expected concentration ratio,1.2785199999999999,1,2,0,Calibration,2,1
is area ratio,1.048091603053435,1,3,0,Calibration,3,1
is expected concentration ratio,0.854886,1,3,0,Calibration,3,1
is area ratio,0.6066857688634193,1,4,0,Calibration,4,1
is expected concentration ratio,0.427702,1,4,0,Calibration,4,1
is area ratio,0.2890162368672397,1,5,0,Calibration,5,1
is expected concentration ratio,0.214372,1,5,0,Calibration,5,1
is area ratio,0.26504297994269344,1,6,0,Calibration,6,1
is expected concentration ratio,0.170662,1,6,0,Calibration,6,1
is area ratio,0.16051625239005737,1,7,0,Calibration,7,1
is expected concentration ratio,0.1275534,1,7,0,Calibration,7,1
is area ratio,0.104302103250478,1,8,0,Calibration,8,1
is expected concentration ratio,0.0842068,1,8,0,Calibration,8,1
experimental concentration,7.372445137062835e-06,1,9,1,Blank,9,1
is area ratio,0.06692160611854685,1,9,1,Blank,9,1
experimental concentration,-5.035212589134143e-06,1,9,2,Blank,10,1
is area ratio,0.038432122370936905,1,9,2,Blank,10,1
experimental concentration,-1.7571796125566603e-05,1,9,3,Blank,11,1
is area ratio,0.009646609360076408,1,9,3,Blank,11,1
experimental concentration,-1.7488602789658946e-05,1,9,4,Blank,12,1
is area ratio,0.009837631327602674,1,9,4,Blank,12,1
experimental concentration,-9.305966645871395e-06,1,9,5,Blank,13,1
is area ratio,0.02862595419847328,1,9,5,Blank,13,1
is area ratio,1.9484905660377358,2,1,0,Calibration,14,1
is expected concentration ratio,1.701498,2,1,0,Calibration,14,1
is area ratio,0.9516431924882629,2,2,0,Calibration,15,1
is expected concentration ratio,1.2785199999999999,2,2,0,Calibration,15,1
is area ratio,1.0303939962476547,2,3,0,Calibration,16,1
is expected concentration ratio,0.854886,2,3,0,Calibration,16,1
is area ratio,0.9701968134957826,2,4,0,Calibration,17,1
is expected concentration ratio,0.427702,2,4,0,Calibration,17,1
is area ratio,0.2833333333333333,2,5,0,Calibration,18,1
is expected concentration ratio,0.214372,2,5,0,Calibration,18,1
is area ratio,0.25958840037418146,2,6,0,Calibration,19,1
is expected concentration ratio,0.170662,2,6,0,Calibration,19,1
is area ratio,0.15691588785046728,2,7,0,Calibration,20,1
is expected concentration ratio,0.1275534,2,7,0,Calibration,20,1
slope,1.1480605113509261,1,,,,,1
intercept,0.049993579850620834,1,,,,,1
slope,0.9642957502720584,2,,,,,1
intercept,0.12706633021604316,2,,,,,1
s0,8.957744367236472e-06,,,,,,1
s0prime,1.2668163572417018e-05,,,,,,1
lod,3.800449071725105e-05,,,,,,1
loq,1.2668163572417018e-04,,,,,,1
experimental concentration,-1.5719662882970347e-05,2,9,1,Blank,22,1
is area ratio,0.09674952198852772,2,9,1,Blank,22,1
experimental concentration,-2.1177773991692763e-05,2,9,2,Blank,23,1
is area ratio,0.08622305529522024,2,9,2,Blank,23,1
experimental concentration,-1.7084324569471432e-05,2,9,3,Blank,24,1
is area ratio,0.09411764705882353,2,9,3,Blank,24,1
experimental concentration,-1.5587844750539188e-05,2,9,4,Blank,25,1
is area ratio,0.09700374531835206,2,9,4,Blank,25,1
experimental concentration,-2.265178940878724e-05,2,9,5,Blank,26,1
is area ratio,0.08338028169014085,2,9,5,Blank,26,1
is area ratio,0.10186741363211951,2,8,0,Calibration,21,1
is expected concentration ratio,0.0842068,2,8,0,Calibration,21,1
