name,tr,area,expected concentration,series,level,parallel,marker,analyte
1.0 mg/ml imazalil,18.2,38489473,1.019024673,11.03.2018 12:00,1,1,Calibration,ACE
0.8 mg/ml imazalil,18.2,31285035,0.813941697,11.03.2018 12:00,2,1,Calibration,ACE
0.6 mg/ml imazalil,18.2,23799618,0.612960681,11.03.2018 12:00,3,1,Calibration,ACE
0.4 mg/ml imazalil,18.2,15866617,0.406306764,11.03.2018 12:00,4,1,Calibration,ACE
0.2 mg/ml imazalil,18.2,8000115,0.204248167,11.03.2018 12:00,5,1,Calibration,ACE
0.1 mg/ml imazalil,18.2,3932841,0.100684207,11.03.2018 12:00,6,1,Calibration,ACE
0.5 mg/ml imazalil,18.2,18848947,0.5,11.03.2018 12:00,1,1,Sample,ACE
1.5 mg/ml imazalil,18.2,54848947,1.5,11.03.2018 12:00,2,1,Sample,ACE
5 mg/ml imazalil,18.2,150948947,5,11.03.2018 12:00,3,1,Sample,ACE
8 mg/ml imazalil,18.2,243228947,8,11.03.2018 12:00,4,1,Sample,ACE
1.0 mg/ml imazalil,18.2,38489473,1.019024673,12.03.2018 12:00,1,1,Calibration,ACE
0.8 mg/ml imazalil,18.2,31285035,0.813941697,12.03.2018 12:00,2,1,Calibration,ACE
0.6 mg/ml imazalil,18.2,23799618,0.612960681,12.03.2018 12:00,3,1,Calibration,ACE
0.4 mg/ml imazalil,18.2,15866617,0.406306764,12.03.2018 12:00,4,1,Calibration,ACE
0.2 mg/ml imazalil,18.2,8000115,0.204248167,12.03.2018 12:00,5,1,Calibration,ACE
0.1 mg/ml imazalil,18.2,3932841,0.100684207,12.03.2018 12:00,6,1,Calibration,ACE
0.5 mg/ml imazalil,18.2,18848947,0.5,12.03.2018 12:00,1,1,Sample,ACE
1.5 mg/ml imazalil,18.2,54848947,1.5,12.03.2018 12:00,2,1,Sample,ACE
5 mg/ml imazalil,18.2,150948947,5,12.03.2018 12:00,3,1,Sample,ACE
8 mg/ml imazalil,18.2,243228947,8,12.03.2018 12:00,4,1,Sample,ACE
1.0 mg/ml imazalil,18.2,38489473,1.019024673,12.03.2018 17:00,1,1,Calibration,ACE
0.8 mg/ml imazalil,18.2,31285035,0.813941697,12.03.2018 17:00,2,1,Calibration,ACE
0.6 mg/ml imazalil,18.2,23799618,0.612960681,12.03.2018 17:00,3,1,Calibration,ACE
0.4 mg/ml imazalil,18.2,15866617,0.406306764,12.03.2018 17:00,4,1,Calibration,ACE
0.2 mg/ml imazalil,18.2,8000115,0.204248167,12.03.2018 17:00,5,1,Calibration,ACE
0.1 mg/ml imazalil,18.2,3932841,0.100684207,12.03.2018 17:00,6,1,Calibration,ACE
0.5 mg/ml imazalil,18.2,18848947,0.5,12.03.2018 17:00,1,1,Sample,ACE
1.5 mg/ml imazalil,18.2,54848947,1.5,12.03.2018 17:00,2,1,Sample,ACE
5 mg/ml imazalil,18.2,150948947,5,12.03.2018 17:00,3,1,Sample,ACE
8 mg/ml imazalil,18.2,243228947,8,12.03.2018 17:00,4,1,Sample,ACE
1.0 mg/ml buprofezin,18.2,38489473,1.019024673,11.03.2018 12:00,1,1,Calibration,THC
0.8 mg/ml buprofezin,18.2,31285035,0.813941697,11.03.2018 12:00,2,1,Calibration,THC
0.6 mg/ml buprofezin,18.2,23799618,0.612960681,11.03.2018 12:00,3,1,Calibration,THC
0.4 mg/ml buprofezin,18.2,15866617,0.406306764,11.03.2018 12:00,4,1,Calibration,THC
0.2 mg/ml buprofezin,18.2,8000115,0.204248167,11.03.2018 12:00,5,1,Calibration,THC
0.1 mg/ml buprofezin,18.2,3932841,0.100684207,11.03.2018 12:00,6,1,Calibration,THC
0.5 mg/ml buprofezin,18.2,18848947,0.5,11.03.2018 12:00,1,1,Sample,THC
1.5 mg/ml buprofezin,18.2,54848947,1.5,11.03.2018 12:00,2,1,Sample,THC
5 mg/ml buprofezin,18.2,150948947,5,11.03.2018 12:00,3,1,Sample,THC
8 mg/ml buprofezin,18.2,243228947,8,11.03.2018 12:00,4,1,Sample,THC
1.0 mg/ml buprofezin,18.2,38489473,1.019024673,12.03.2018 12:00,1,1,Calibration,THC
0.8 mg/ml buprofezin,18.2,31285035,0.813941697,12.03.2018 12:00,2,1,Calibration,THC
0.6 mg/ml buprofezin,18.2,23799618,0.612960681,12.03.2018 12:00,3,1,Calibration,THC
0.4 mg/ml buprofezin,18.2,15866617,0.406306764,12.03.2018 12:00,4,1,Calibration,THC
0.2 mg/ml buprofezin,18.2,8000115,0.204248167,12.03.2018 12:00,5,1,Calibration,THC
0.1 mg/ml buprofezin,18.2,3932841,0.100684207,12.03.2018 12:00,6,1,Calibration,THC
0.5 mg/ml buprofezin,18.2,18848947,0.5,12.03.2018 12:00,1,1,Sample,THC
1.5 mg/ml buprofezin,18.2,54848947,1.5,12.03.2018 12:00,2,1,Sample,THC
5 mg/ml buprofezin,18.2,150948947,5,12.03.2018 12:00,3,1,Sample,THC
8 mg/ml buprofezin,18.2,243228947,8,12.03.2018 12:00,4,1,Sample,THC
1.0 mg/ml buprofezin,18.2,38489473,1.019024673,12.03.2018 17:00,1,1,Calibration,THC
0.8 mg/ml buprofezin,18.2,31285035,0.813941697,12.03.2018 17:00,2,1,Calibration,THC
0.6 mg/ml buprofezin,18.2,23799618,0.612960681,12.03.2018 17:00,3,1,Calibration,THC
0.4 mg/ml buprofezin,18.2,15866617,0.406306764,12.03.2018 17:00,4,1,Calibration,THC
0.2 mg/ml buprofezin,18.2,8000115,0.204248167,12.03.2018 17:00,5,1,Calibration,THC
0.1 mg/ml buprofezin,18.2,3932841,0.100684207,12.03.2018 17:00,6,1,Calibration,THC
0.5 mg/ml buprofezin,18.2,18848947,0.5,12.03.2018 17:00,1,1,Sample,THC
1.5 mg/ml buprofezin,18.2,54848947,1.5,12.03.2018 17:00,2,1,Sample,THC
5 mg/ml buprofezin,18.2,150948947,5,12.03.2018 17:00,3,1,Sample,THC
8 mg/ml buprofezin,18.2,243228947,8,12.03.2018 17:00,4,1,Sample,THC
