name,tr,area,expected concentration,series,level,parallel,marker,analyte
0.8 mg/ml compound 1,18.950,31285035,0.813941697386764,11/2/18,1,1,Calibration,ACE
0.6 mg/ml compound 1,18.965,23799618,0.612960681043829,11/2/18,2,1,Calibration,ACE
0.4 mg/ml compound 1,18.923,15866617,0.406306764327968,11/2/18,3,1,Calibration,ACE
0.2 mg/ml compound 1,18.894,8000115,0.204248166773677,11/2/18,4,1,Calibration,ACE
0.1 mg/ml compound 1,18.820,3932841,0.100684206794816,11/2/18,5,1,Calibration,ACE
compound 1-0211-100-3 200x,18.946,18349545,0.466214077241094,11/2/18,2,3,Sample,ACE
compound 1-0211-100-3 200x,18.946,18349545,0.466214077241094,11/2/18,2,4,Sample,ACE
compound 1-0211-100-3 200x,18.946,18349545,0.466214077241094,11/2/18,2,5,Sample,ACE
compound 1-0211-80-1 200x,18.927,15298575,0.387685056178659,11/2/18,1,1,Sample,ACE
compound 1-0211-80-2 200x,18.904,14973349,0.380269930072592,11/2/18,1,2,Sample,ACE
compound 1-0211-80-3 200x,18.925,14836985,0.375711133253609,11/2/18,1,3,Sample,ACE
compound 1-0211-80-3 200x,18.925,14836985,0.375711133253609,11/2/18,1,4,Sample,ACE
compound 1-0211-80-3 200x,18.925,14836985,0.375711133253609,11/2/18,1,5,Sample,ACE
compound 1-0211-100-1 200x,18.921,18273124,0.464456951851624,11/2/18,2,1,Sample,ACE
compound 1-0211-100-2 200x,18.889,18505821,0.471199218033217,11/2/18,2,2,Sample,ACE
compound 1-0211-120-1 200x,18.947,21413261,0.545760905838429,11/2/18,3,1,Sample,ACE
compound 1-0211-120-2 200x,18.930,21653156,0.551012394419746,11/2/18,3,2,Sample,ACE
compound 1-0211-120-3 200x,18.929,21351522,0.54521302722714,11/2/18,3,3,Sample,ACE
compound 1-0211-120-3 200x,18.929,21351522,0.54521302722714,11/2/18,3,4,Sample,ACE
compound 1-0211-120-3 200x,18.929,21351522,0.54521302722714,11/2/18,3,5,Sample,ACE
compound 1-0211-120-1 200x,18.947,21413261,0.545760905838429,11/2/18,4,1,Sample,ACE
compound 1-0211-120-2 200x,18.930,21653156,0.551012394419746,11/2/18,4,2,Sample,ACE
compound 1-0211-120-3 200x,18.929,21351522,0.54521302722714,11/2/18,4,3,Sample,ACE
compound 1-0211-120-3 200x,18.929,21351522,0.54521302722714,11/2/18,4,4,Sample,ACE
compound 1-0211-120-3 200x,18.929,21351522,0.54521302722714,11/2/18,4,5,Sample,ACE
0.8 mg/ml compound 1,18.950,31285035,0.813941697386764,11/2/18,1,1,Calibration,THC
0.6 mg/ml compound 1,18.965,23799618,0.612960681043829,11/2/18,2,1,Calibration,THC
0.4 mg/ml compound 1,18.923,15866617,0.406306764327968,11/2/18,3,1,Calibration,THC
0.2 mg/ml compound 1,18.894,8000115,0.204248166773677,11/2/18,4,1,Calibration,THC
0.1 mg/ml compound 1,18.820,3932841,0.100684206794816,11/2/18,5,1,Calibration,THC
compound 1-0211-100-3 200x,18.946,18349545,0.466214077241094,11/2/18,2,3,Sample,THC
compound 1-0211-100-3 200x,18.946,18349545,0.466214077241094,11/2/18,2,4,Sample,THC
compound 1-0211-100-3 200x,18.946,18349545,0.466214077241094,11/2/18,2,5,Sample,THC
compound 1-0211-80-1 200x,18.927,15298575,0.387685056178659,11/2/18,1,1,Sample,THC
compound 1-0211-80-2 200x,18.904,14973349,0.380269930072592,11/2/18,1,2,Sample,THC
compound 1-0211-80-3 200x,18.925,14836985,0.375711133253609,11/2/18,1,3,Sample,THC
compound 1-0211-80-3 200x,18.925,14836985,0.375711133253609,11/2/18,1,4,Sample,THC
compound 1-0211-80-3 200x,18.925,14836985,0.375711133253609,11/2/18,1,5,Sample,THC
compound 1-0211-100-1 200x,18.921,18273124,0.464456951851624,11/2/18,2,1,Sample,THC
compound 1-0211-100-2 200x,18.889,18505821,0.471199218033217,11/2/18,2,2,Sample,THC
compound 1-0211-120-1 200x,18.947,21413261,0.545760905838429,11/2/18,3,1,Sample,THC
compound 1-0211-120-2 200x,18.930,21653156,0.551012394419746,11/2/18,3,2,Sample,THC
compound 1-0211-120-3 200x,18.929,21351522,0.54521302722714,11/2/18,3,3,Sample,THC
compound 1-0211-120-3 200x,18.929,21351522,0.54521302722714,11/2/18,3,4,Sample,THC
compound 1-0211-120-3 200x,18.929,21351522,0.54521302722714,11/2/18,3,5,Sample,THC
compound 1-0211-120-1 200x,18.947,21413261,0.545760905838429,11/2/18,4,1,Sample,THC
compound 1-0211-120-2 200x,18.930,21653156,0.551012394419746,11/2/18,4,2,Sample,THC
compound 1-0211-120-3 200x,18.929,21351522,0.54521302722714,11/2/18,4,3,Sample,THC
compound 1-0211-120-3 200x,18.929,21351522,0.54521302722714,11/2/18,4,4,Sample,THC
compound 1-0211-120-3 200x,18.929,21351522,0.54521302722714,11/2/18,4,5,Sample,THC
