name,value,series,level,parallel,marker,row,analyte
experimental concentration,0.3944803120309341,1,1,1,Default,1,1
trueness,96.28176254703574,1,1,1,Default,1,1
experimental concentration,0.38615720494282546,1,1,1,Default,2,1
trueness,94.25032169721186,1,1,1,Default,2,1
experimental concentration,0.523689693630428,1,2,1,Default,3,1
trueness,102.74177517448734,1,2,1,Default,3,1
experimental concentration,0.5243232007621287,1,2,1,Default,4,1
trueness,102.86606184288691,1,2,1,Default,4,1
experimental concentration,0.655478588947625,1,3,0,Default,5,1
trueness,107.50582812486363,1,3,0,Default,5,1
experimental concentration,0.6363838342393475,1,3,1,Default,6,1
trueness,104.37407454455156,1,3,1,Default,6,1
is area ratio,3.8880503921462917,1,1,1,Calibration,7,1
is expected concentration ratio,4.0605014461750795,1,1,1,Calibration,7,1
is area ratio,2.935076403540118,1,2,1,Calibration,8,1
is expected concentration ratio,3.048572344311945,1,2,1,Calibration,8,1
is area ratio,1.9828684843699775,1,3,1,Calibration,9,1
is expected concentration ratio,2.0420626035497,1,3,1,Calibration,9,1
is area ratio,0.9832685496181686,1,4,1,Calibration,10,1
is expected concentration ratio,1.013051723449985,1,4,1,Calibration,10,1
is area ratio,0.5004475771092494,1,5,1,Calibration,11,1
is expected concentration ratio,0.51823799343361,1,5,1,Calibration,11,1
experimental concentration,4.847202020039902,2/16/19 16:00,1,1,pH: 2.3,12,1
trueness,950.9641801729064,2/16/19 16:00,1,1,pH: 2.3,12,1
change tr,-0.0024349265869750294,2/16/19 16:00,1,1,pH: 2.3,12,1
change rs,19.871794871794876,2/16/19 16:00,1,1,pH: 2.3,12,1
change n,48.17337568268588,2/16/19 16:00,1,1,pH: 2.3,12,1
experimental concentration,5.19609949007232,2/16/19 16:00,2,1,pH: 2.3,13,1
trueness,1019.4137713354072,2/16/19 16:00,2,1,pH: 2.3,13,1
change tr,-0.0024349265869750294,2/16/19 16:00,2,1,pH: 2.3,13,1
change rs,19.871794871794876,2/16/19 16:00,2,1,pH: 2.3,13,1
change n,46.011318065860735,2/16/19 16:00,2,1,pH: 2.3,13,1
experimental concentration,4.645815340716669,2/16/19 16:00,3,1,pH: 2.3,14,1
trueness,911.4544758922531,2/16/19 16:00,3,1,pH: 2.3,14,1
change tr,-0.0024349265869750294,2/16/19 16:00,3,1,pH: 2.3,14,1
change rs,19.871794871794876,2/16/19 16:00,3,1,pH: 2.3,14,1
change n,43.70477811206771,2/16/19 16:00,3,1,pH: 2.3,14,1
experimental concentration,5.111072676301629,2/17/19 8:35,1,1,pH: 5,15,1
trueness,1002.7325078114467,2/17/19 8:35,1,1,pH: 5,15,1
change tr,-0.0024349265869750294,2/17/19 8:35,1,1,pH: 5,15,1
change rs,-3.8461538461538494,2/17/19 8:35,1,1,pH: 5,15,1
change n,-11.028847411531562,2/17/19 8:35,1,1,pH: 5,15,1
experimental concentration,5.020238823784522,2/17/19 8:35,2,1,pH: 5,16,1
trueness,984.911971400182,2/17/19 8:35,2,1,pH: 5,16,1
change tr,-0.0024349265869750294,2/17/19 8:35,2,1,pH: 5,16,1
change rs,-3.8461538461538494,2/17/19 8:35,2,1,pH: 5,16,1
change n,-12.327061461426407,2/17/19 8:35,2,1,pH: 5,16,1
experimental concentration,5.966868265383449,2/17/19 8:35,3,1,pH: 5,17,1
trueness,1170.6295641755394,2/17/19 8:35,3,1,pH: 5,17,1
change tr,-0.3579342082836338,2/17/19 8:35,3,1,pH: 5,17,1
change rs,-3.8461538461538494,2/17/19 8:35,3,1,pH: 5,17,1
change n,-13.712030368524728,2/17/19 8:35,3,1,pH: 5,17,1
experimental concentration,-25.951566468370775,2/17/19 12:00,1,1,flow: 1.1,18,1
trueness,-5091.392937361778,2/17/19 12:00,1,1,flow: 1.1,18,1
change tr,0.09496213689155901,2/17/19 12:00,1,1,flow: 1.1,18,1
change n,-1.184844065044262,2/17/19 12:00,1,1,flow: 1.1,18,1
experimental concentration,0.43397989357814987,2/17/19 14:00,1,1,flow: 1.3,19,1
trueness,85.14176467203922,2/17/19 14:00,1,1,flow: 1.3,19,1
change tr,-0.2848864106747289,2/17/19 14:00,1,1,flow: 1.3,19,1
change n,-1.184844065044262,2/17/19 14:00,1,1,flow: 1.3,19,1
experimental concentration,0.607778508046377,2/17/19 17:00,1,1,pH: 5; columns: Eclipse B:24241,20,1
trueness,119.23901422748567,2/17/19 17:00,1,1,pH: 5; columns: Eclipse B:24241,20,1
change tr,-0.2848864106747289,2/17/19 17:00,1,1,pH: 5; columns: Eclipse B:24241,20,1
change rs,-3.8461538461538494,2/17/19 17:00,1,1,pH: 5; columns: Eclipse B:24241,20,1
change n,-11.028847411531562,2/17/19 17:00,1,1,pH: 5; columns: Eclipse B:24241,20,1
experimental concentration,0.6147823458830994,2/17/19 17:00,2,1,pH: 5; columns: Eclipse B:24241,21,1
trueness,120.61308505823018,2/17/19 17:00,2,1,pH: 5; columns: Eclipse B:24241,21,1
change tr,-0.2848864106747289,2/17/19 17:00,2,1,pH: 5; columns: Eclipse B:24241,21,1
change rs,-3.8461538461538494,2/17/19 17:00,2,1,pH: 5; columns: Eclipse B:24241,21,1
change n,-12.327061461426407,2/17/19 17:00,2,1,pH: 5; columns: Eclipse B:24241,21,1
experimental concentration,0.619336302661434,2/17/19 17:00,3,1,pH: 5; columns: Eclipse B:24241,22,1
trueness,121.50651796165519,2/17/19 17:00,3,1,pH: 5; columns: Eclipse B:24241,22,1
change tr,-0.2848864106747289,2/17/19 17:00,3,1,pH: 5; columns: Eclipse B:24241,22,1
change rs,-3.8461538461538494,2/17/19 17:00,3,1,pH: 5; columns: Eclipse B:24241,22,1
change n,-13.712030368524728,2/17/19 17:00,3,1,pH: 5; columns: Eclipse B:24241,22,1
is area ratio,3.898519975031211,2/16/19 16:00,1,1,Calibration,23,1
is expected concentration ratio,4.0605014461750795,2/16/19 16:00,1,1,Calibration,23,1
is area ratio,2.9361827159262353,2/16/19 16:00,2,1,Calibration,24,1
is expected concentration ratio,3.048572344311945,2/16/19 16:00,2,1,Calibration,24,1
is area ratio,1.9781299753493524,2/16/19 16:00,3,1,Calibration,25,1
is expected concentration ratio,2.0420626035497,2/16/19 16:00,3,1,Calibration,25,1
is area ratio,0.9849043128984989,2/16/19 16:00,4,1,Calibration,26,1
is expected concentration ratio,1.013051723449985,2/16/19 16:00,4,1,Calibration,26,1
is area ratio,0.4998161269979493,2/16/19 16:00,5,1,Calibration,27,1
is expected concentration ratio,0.51823799343361,2/16/19 16:00,5,1,Calibration,27,1
is area ratio,3.8930492930284233,2/17/19 8:35,1,1,Calibration,28,1
is expected concentration ratio,4.0605014461750795,2/17/19 8:35,1,1,Calibration,28,1
is area ratio,2.9319898764487986,2/17/19 8:35,2,1,Calibration,29,1
is expected concentration ratio,3.048572344311945,2/17/19 8:35,2,1,Calibration,29,1
is area ratio,1.8552387891847102,2/17/19 8:35,3,1,Calibration,30,1
is expected concentration ratio,2.0420626035497,2/17/19 8:35,3,1,Calibration,30,1
is area ratio,0.9860776866880331,2/17/19 8:35,4,1,Calibration,31,1
is expected concentration ratio,1.013051723449985,2/17/19 8:35,4,1,Calibration,31,1
is area ratio,0.49838845633360185,2/17/19 8:35,5,1,Calibration,32,1
is expected concentration ratio,0.51823799343361,2/17/19 8:35,5,1,Calibration,32,1
is area ratio,3.77798888018982,2/17/19 12:00,1,1,Calibration,33,1
is expected concentration ratio,4.0605014461750795,2/17/19 12:00,1,1,Calibration,33,1
is area ratio,20.029411539557454,2/17/19 12:00,2,1,Calibration,34,1
is expected concentration ratio,2.03238156287463,2/17/19 12:00,2,1,Calibration,34,1
is area ratio,13.72956875584497,2/17/19 12:00,3,1,Calibration,35,1
is expected concentration ratio,1.3613750690331334,2/17/19 12:00,3,1,Calibration,35,1
is area ratio,6.813872727664805,2/17/19 12:00,4,1,Calibration,36,1
is expected concentration ratio,0.6753678156333234,2/17/19 12:00,4,1,Calibration,36,1
is area ratio,3.4518360467772733,2/17/19 12:00,5,1,Calibration,37,1
is expected concentration ratio,0.3454919956224067,2/17/19 12:00,5,1,Calibration,37,1
is area ratio,26.867745776740712,2/17/19 14:00,1,1,Calibration,38,1
is expected concentration ratio,2.70700096411672,2/17/19 14:00,1,1,Calibration,38,1
is area ratio,17.361806268456206,2/17/19 14:00,2,1,Calibration,39,1
is expected concentration ratio,2.03238156287463,2/17/19 14:00,2,1,Calibration,39,1
is area ratio,13.62737913651907,2/17/19 14:00,3,1,Calibration,40,1
is expected concentration ratio,1.3613750690331334,2/17/19 14:00,3,1,Calibration,40,1
is area ratio,6.754220376140169,2/17/19 14:00,4,1,Calibration,41,1
is expected concentration ratio,0.6753678156333234,2/17/19 14:00,4,1,Calibration,41,1
is area ratio,3.418621369750733,2/17/19 14:00,5,1,Calibration,42,1
is expected concentration ratio,0.3454919956224067,2/17/19 14:00,5,1,Calibration,42,1
is area ratio,27.164857830335908,2/17/19 17:00,1,1,Calibration,43,1
is expected concentration ratio,2.70700096411672,2/17/19 17:00,1,1,Calibration,43,1
is area ratio,18.09063152862625,2/17/19 17:00,2,1,Calibration,44,1
is expected concentration ratio,2.03238156287463,2/17/19 17:00,2,1,Calibration,44,1
is area ratio,1.9831222222222222,2/17/19 17:00,3,1,Calibration,45,1
is expected concentration ratio,2.0420626035497,2/17/19 17:00,3,1,Calibration,45,1
is area ratio,0.9849619082056333,2/17/19 17:00,4,1,Calibration,46,1
is expected concentration ratio,1.013051723449985,2/17/19 17:00,4,1,Calibration,46,1
is area ratio,0.4986179074906463,2/17/19 17:00,5,1,Calibration,47,1
is expected concentration ratio,0.51823799343361,2/17/19 17:00,5,1,Calibration,47,1
slope,0.9563744828907137,1,,,Calibration,,1
intercept,0.014662331786824634,1,,,Calibration,,1
slope,0.9588419054461167,2/16/19 16:00,,,Calibration,,1
intercept,0.01095905984421125,2/16/19 16:00,,,Calibration,,1
slope,-0.05680845662566392,2/17/19 12:00,,,Calibration,,1
intercept,9.656827263409633,2/17/19 12:00,,,Calibration,,1
slope,9.459738010883912,2/17/19 14:00,,,Calibration,,1
intercept,0.1322276081971503,2/17/19 14:00,,,Calibration,,1
slope,11.15227921963299,2/17/19 17:00,,,Calibration,,1
intercept,-8.796749740074443,2/17/19 17:00,,,Calibration,,1
slope,0.9586336671964757,2/17/19 8:35,,,Calibration,,1
intercept,-0.015157843116673564,2/17/19 8:35,,,Calibration,,1
mean tr,20.5345,,1,,Default,,1
rsd tr,3.443506202670684e-03,,1,,Default,,1
mean rs,1.56,,1,,Default,,1
rsd rs,0.0,,1,,Default,,1
mean n,202600.5,,1,,Default,,1
rsd n,1.675622546082865,,1,,Default,,1
mean area,15077145.0,,1,,Default,,1
rsd area,1.4069774772078152,,1,,Default,,1
mean experimental concentration,0.3903187584868798,,1,,Default,,1
rsd experimental concentration,1.507825420781374,,1,,Default,,1
mean trueness,95.26604212212379,,1,,Default,,1
rsd trueness,1.5078254207815363,,1,,Default,,1
mean tr,20.5345,,2,,Default,,1
rsd tr,3.443506202670684e-03,,2,,Default,,1
mean rs,1.56,,2,,Default,,1
rsd rs,0.0,,2,,Default,,1
mean n,205600.5,,2,,Default,,1
rsd n,3.4392269531764152e-04,,2,,Default,,1
mean area,20227145.0,,2,,Default,,1
rsd area,0.0,,2,,Default,,1
mean experimental concentration,0.5240064471962784,,2,,Default,,1
rsd experimental concentration,0.08548696130598577,,2,,Default,,1
mean trueness,102.80391850868713,,2,,Default,,1
rsd trueness,0.08548696130584591,,2,,Default,,1
mean tr,20.5345,,3,,Default,,1
rsd tr,3.443506202670684e-03,,3,,Default,,1
mean rs,1.56,,3,,Default,,1
rsd rs,0.0,,3,,Default,,1
mean n,208900.5,,3,,Default,,1
rsd n,3.3848975047285553e-04,,3,,Default,,1
mean area,24877145.0,,3,,Default,,1
rsd area,1.989676656346953,,3,,Default,,1
mean experimental concentration,0.6459312115934863,,3,,Default,,1
rsd experimental concentration,2.0903201915274845,,3,,Default,,1
mean trueness,105.93995133470759,,3,,Default,,1
rsd trueness,2.090320191527604,,3,,Default,,1
mean tr,20.534,,,,pH: 2.3,,1
rsd tr,0.0,,,,pH: 2.3,,1
mean rs,1.87,,,,pH: 2.3,,1
rsd rs,0.0,,,,pH: 2.3,,1
mean n,300200.0,,,,pH: 2.3,,1
rsd n,0.0,,,,pH: 2.3,,1
mean area,18227145.0,,,,pH: 2.3,,1
rsd area,5.4863227345807584,,,,pH: 2.3,,1
mean change tr,-0.0024349265869750294,,,,pH: 2.3,,1
rsd change tr,-0.0,,,,pH: 2.3,,1
mean change rs,19.871794871794876,,,,pH: 2.3,,1
rsd change rs,0.0,,,,pH: 2.3,,1
mean change n,45.96315728687144,,,,pH: 2.3,,1
rsd change n,4.861911532400398,,,,pH: 2.3,,1
mean experimental concentration,4.89637228360963,,,,pH: 2.3,,1
rsd experimental concentration,5.686204822694886,,,,pH: 2.3,,1
mean trueness,960.6108091335223,,,,pH: 2.3,,1
rsd trueness,5.6862048226948826,,,,pH: 2.3,,1
mean tr,20.509666666666664,,,,pH: 5,,1
rsd tr,0.20549612207662847,,,,pH: 5,,1
mean rs,1.5,,,,pH: 5,,1
rsd rs,0.0,,,,pH: 5,,1
mean n,180256.0,,,,pH: 5,,1
rsd n,0.0,,,,pH: 5,,1
mean area,20034256.333333332,,,,pH: 5,,1
rsd area,10.894047208550264,,,,pH: 5,,1
mean change tr,-0.12093468715252796,,,,pH: 5,,1
rsd change tr,-169.71773013760523,,,,pH: 5,,1
mean change rs,-3.846153846153849,,,,pH: 5,,1
rsd change rs,-1.4141295537309379e-14,,,,pH: 5,,1
mean change n,-12.3559797471609,,,,pH: 5,,1
rsd change n,-10.859723291773957,,,,pH: 5,,1
mean experimental concentration,5.366059921823201,,,,pH: 5,,1
rsd experimental concentration,9.733280946295607,,,,pH: 5,,1
mean trueness,1052.7580144623892,,,,pH: 5,,1
rsd trueness,9.733280946295614,,,,pH: 5,,1
mean tr,20.476,,,,pH: 5; columns: Eclipse B:24241,,1
rsd tr,0.0,,,,pH: 5; columns: Eclipse B:24241,,1
mean rs,1.5,,,,pH: 5; columns: Eclipse B:24241,,1
rsd rs,0.0,,,,pH: 5; columns: Eclipse B:24241,,1
mean n,180256.0,,,,pH: 5; columns: Eclipse B:24241,,1
rsd n,0.0,,,,pH: 5; columns: Eclipse B:24241,,1
mean area,16159493.0,,,,pH: 5; columns: Eclipse B:24241,,1
rsd area,0.0,,,,pH: 5; columns: Eclipse B:24241,,1
mean change tr,-0.2848864106747289,,,,pH: 5; columns: Eclipse B:24241,,1
rsd change tr,-0.0,,,,pH: 5; columns: Eclipse B:24241,,1
mean change rs,-3.846153846153849,,,,pH: 5; columns: Eclipse B:24241,,1
rsd change rs,-1.4141295537309379e-14,,,,pH: 5; columns: Eclipse B:24241,,1
mean change n,-12.3559797471609,,,,pH: 5; columns: Eclipse B:24241,,1
rsd change n,-10.859723291773957,,,,pH: 5; columns: Eclipse B:24241,,1
mean experimental concentration,0.6139657188636368,,,,pH: 5; columns: Eclipse B:24241,,1
rsd experimental concentration,0.9482632292708305,,,,pH: 5; columns: Eclipse B:24241,,1
mean trueness,120.45287241579035,,,,pH: 5; columns: Eclipse B:24241,,1
rsd trueness,0.9482632292708308,,,,pH: 5; columns: Eclipse B:24241,,1
