name,tr,area,expected concentration,series,level,parallel,marker,analyte
0.8 mg/ml compound 1,18.950,31285035,0.813941697386764,11/2/18,1,1,Calibration,ACE
0.6 mg/ml compound 1,18.965,23799618,0.612960681043829,11/2/18,2,1,Calibration,ACE
0.4 mg/ml compound 1,18.923,15866617,0.406306764327968,11/2/18,3,1,Calibration,ACE
0.2 mg/ml compound 1,18.894,8000115,0.204248166773677,11/2/18,4,1,Calibration,ACE
0.1 mg/ml compound 1,18.820,3932841,0.100684206794816,11/2/18,5,1,Calibration,ACE
compound 1-0211-100-3 200x,18.946,18349545,0.466214077241094,11/2/18,1,1,Sample,ACE
compound 1-0211-80-1 200x,18.927,15298575,0.387685056178659,11/2/18,1,2,Sample,ACE
compound 1-0211-80-2 200x,18.904,14973349,0.380269930072592,11/2/18,1,3,Sample,ACE
compound 1-0211-80-3 200x,18.925,14836985,0.375711133253609,11/2/18,1,4,Sample,ACE
compound 1-0211-100-1 200x,18.921,18273124,0.464456951851624,11/2/18,1,5,Sample,ACE
compound 1-0211-100-2 200x,18.889,18505821,0.471199218033217,11/2/18,1,6,Sample,ACE
compound 1-0211-120-1 200x,18.947,21413261,0.545760905838429,11/2/18,1,7,Sample,ACE
compound 1-0211-120-2 200x,18.930,21653156,0.551012394419746,11/2/18,1,8,Sample,ACE
compound 1-0211-120-3 200x,18.929,21351522,0.54521302722714,11/2/18,1,9,Sample,ACE
compound 1-0211-120-3 200x,18.929,21351522,0.54521302722714,11/2/18,1,10,Sample,ACE
0.8 mg/ml compound 1,20.599,31361954,0.812100289235016,11/6/18,1,1,Calibration,ACE
0.6 mg/ml compound 1,20.535,23723404,0.609714468862389,11/6/18,2,1,Calibration,ACE
0.4 mg/ml compound 1,20.739,15881159,0.40841252070994,11/6/18,3,1,Calibration,ACE
0.2 mg/ml compound 1,20.547,7931517,0.202610344689997,11/6/18,4,1,Calibration,ACE
0.1 mg/ml compound 1,20.446,4026656,0.103647598686722,11/6/18,5,1,Calibration,ACE
compound 1-0611-80-1 200x,20.481,16215817,0.411245011568794,11/6/18,1,1,Sample,ACE
compound 1-0611-80-2 200x,20.597,16331121,0.413547929207025,11/6/18,1,2,Sample,ACE
compound 1-0611-80-3 200x,20.544,16345495,0.413532243042751,11/6/18,1,3,Sample,ACE
compound 1-0611-100-1 200x,20.694,20390725,0.518211878167869,11/6/18,2,1,Sample,ACE
compound 1-0611-100-2 200x,20.337,20453103,0.517107190630106,11/6/18,2,2,Sample,ACE
compound 1-0611-100-3 200x,20.424,20521552,0.518258869877326,11/6/18,2,3,Sample,ACE
compound 1-0611-120-1 200x,20.419,24480500,0.62360003409337,11/6/18,3,1,Sample,ACE
compound 1-0611-120-2 200x,20.470,24503162,0.62762180005778,11/6/18,3,2,Sample,ACE
compound 1-0611-120-3 200x,20.533,24814679,0.62668662168929,11/6/18,3,3,Sample,ACE
0.8 mg/ml compound 1,20.534,31227145,0.812100289235016,11/15/18,1,1,Calibration,ACE
0.6 mg/ml compound 1,20.461,23548479,0.609714468862389,11/15/18,2,1,Calibration,ACE
0.4 mg/ml compound 1,20.554,15884809,0.40841252070994,11/15/18,3,1,Calibration,ACE
0.2 mg/ml compound 1,20.476,7899493,0.202610344689997,11/15/18,4,1,Calibration,ACE
0.1 mg/ml compound 1,20.289,4004009,0.103647598686722,11/15/18,5,1,Calibration,ACE
compound 1-1511-80-1 200x,20.400,16134864,0.411245011568794,11/15/18,1,1,Sample,ACE
compound 1-1511-80-2 200x,20.478,16262256,0.413547929207025,11/15/18,1,2,Sample,ACE
compound 1-1511-80-3 200x,20.544,16335709,0.413532243042751,11/15/18,1,3,Sample,ACE
compound 1-1511-100-1 200x,20.481,20504205,0.518211878167869,11/15/18,2,1,Sample,ACE
compound 1-1511-100-2 200x,20.356,20421780,0.517107190630106,11/15/18,2,2,Sample,ACE
compound 1-1511-100-3 200x,20.621,20491652,0.518258869877326,11/15/18,2,3,Sample,ACE
compound 1-1511-120-1 200x,20.399,24412899,0.62360003409337,11/15/18,3,1,Sample,ACE
compound 1-1511-120-2 200x,20.553,24430720,0.62762180005778,11/15/18,3,2,Sample,ACE
compound 1-1511-120-3 200x,20.485,24809024,0.62668662168929,11/15/18,3,3,Sample,ACE
0.8 mg/ml compound 1,18.950,31285035,0.813941697386764,11/2/18,1,1,Calibration,THC
0.6 mg/ml compound 1,18.965,23799618,0.612960681043829,11/2/18,2,1,Calibration,THC
0.4 mg/ml compound 1,18.923,15866617,0.406306764327968,11/2/18,3,1,Calibration,THC
0.2 mg/ml compound 1,18.894,8000115,0.204248166773677,11/2/18,4,1,Calibration,THC
0.1 mg/ml compound 1,18.820,3932841,0.100684206794816,11/2/18,5,1,Calibration,THC
compound 1-0211-100-3 200x,18.946,18349545,0.466214077241094,11/2/18,1,9,Sample,THC
compound 1-0211-80-1 200x,18.927,15298575,0.387685056178659,11/2/18,1,1,Sample,THC
compound 1-0211-80-2 200x,18.904,14973349,0.380269930072592,11/2/18,1,2,Sample,THC
compound 1-0211-80-3 200x,18.925,14836985,0.375711133253609,11/2/18,1,3,Sample,THC
compound 1-0211-100-1 200x,18.921,18273124,0.464456951851624,11/2/18,1,4,Sample,THC
compound 1-0211-100-2 200x,18.889,18505821,0.471199218033217,11/2/18,1,5,Sample,THC
compound 1-0211-120-1 200x,18.947,21413261,0.545760905838429,11/2/18,1,6,Sample,THC
compound 1-0211-120-2 200x,18.930,21653156,0.551012394419746,11/2/18,1,7,Sample,THC
compound 1-0211-120-3 200x,18.929,21351522,0.54521302722714,11/2/18,1,8,Sample,THC
compound 1-0211-120-3 200x,18.929,21351522,0.54521302722714,11/2/18,1,10,Sample,THC
0.8 mg/ml compound 1,20.599,31361954,0.812100289235016,11/6/18,1,1,Calibration,THC
0.6 mg/ml compound 1,20.535,23723404,0.609714468862389,11/6/18,2,1,Calibration,THC
0.4 mg/ml compound 1,20.739,15881159,0.40841252070994,11/6/18,3,1,Calibration,THC
0.2 mg/ml compound 1,20.547,7931517,0.202610344689997,11/6/18,4,1,Calibration,THC
0.1 mg/ml compound 1,20.446,4026656,0.103647598686722,11/6/18,5,1,Calibration,THC
compound 1-0611-80-1 200x,20.481,16215817,0.411245011568794,11/6/18,1,1,Sample,THC
compound 1-0611-80-2 200x,20.597,16331121,0.413547929207025,11/6/18,1,2,Sample,THC
compound 1-0611-80-3 200x,20.544,16345495,0.413532243042751,11/6/18,1,3,Sample,THC
compound 1-0611-100-1 200x,20.694,20390725,0.518211878167869,11/6/18,2,1,Sample,THC
compound 1-0611-100-2 200x,20.337,20453103,0.517107190630106,11/6/18,2,2,Sample,THC
compound 1-0611-100-3 200x,20.424,20521552,0.518258869877326,11/6/18,2,3,Sample,THC
compound 1-0611-120-1 200x,20.419,24480500,0.62360003409337,11/6/18,3,1,Sample,THC
compound 1-0611-120-2 200x,20.470,24503162,0.62762180005778,11/6/18,3,2,Sample,THC
compound 1-0611-120-3 200x,20.533,24814679,0.62668662168929,11/6/18,3,3,Sample,THC
0.8 mg/ml compound 1,20.534,31227145,0.812100289235016,11/15/18,1,1,Calibration,THC
0.6 mg/ml compound 1,20.461,23548479,0.609714468862389,11/15/18,2,1,Calibration,THC
0.4 mg/ml compound 1,20.554,15884809,0.40841252070994,11/15/18,3,1,Calibration,THC
0.2 mg/ml compound 1,20.476,7899493,0.202610344689997,11/15/18,4,1,Calibration,THC
0.1 mg/ml compound 1,20.289,4004009,0.103647598686722,11/15/18,5,1,Calibration,THC
compound 1-1511-80-1 200x,20.400,16134864,0.411245011568794,11/15/18,1,1,Sample,THC
compound 1-1511-80-2 200x,20.478,16262256,0.413547929207025,11/15/18,1,2,Sample,THC
compound 1-1511-80-3 200x,20.544,16335709,0.413532243042751,11/15/18,1,3,Sample,THC
compound 1-1511-100-1 200x,20.481,20504205,0.518211878167869,11/15/18,2,1,Sample,THC
compound 1-1511-100-2 200x,20.356,20421780,0.517107190630106,11/15/18,2,2,Sample,THC
compound 1-1511-100-3 200x,20.621,20491652,0.518258869877326,11/15/18,2,3,Sample,THC
compound 1-1511-120-1 200x,20.399,24412899,0.62360003409337,11/15/18,3,1,Sample,THC
compound 1-1511-120-2 200x,20.553,24430720,0.62762180005778,11/15/18,3,2,Sample,THC
compound 1-1511-120-3 200x,20.485,24809024,0.62668662168929,11/15/18,3,3,Sample,THC
