name,value,series,level,parallel,marker,row,analyte
is area ratio,1.9670476190476192,1,1,,Calibration,1,1
is expected concentration ratio,1.701498,1,1,,Calibration,1,1
residual,20653.949029708816,1,1,,Calibration,1,1
is area ratio,1.5381315538608198,1,2,,Calibration,2,1
is expected concentration ratio,1.2785199999999999,1,2,,Calibration,2,1
residual,16134.949272510987,1,2,,Calibration,2,1
is area ratio,1.048091603053435,1,3,,Calibration,3,1
is expected concentration ratio,0.854886,1,3,,Calibration,3,1
residual,10983.949515689721,1,3,,Calibration,3,1
is area ratio,0.6066857688634193,1,4,,Calibration,4,1
is expected concentration ratio,0.427702,1,4,,Calibration,4,1
residual,6351.949760906261,1,4,,Calibration,4,1
is area ratio,0.2890162368672397,1,5,,Calibration,5,1
is expected concentration ratio,0.214372,1,5,,Calibration,5,1
residual,3025.9498833641355,1,5,,Calibration,5,1
is area ratio,0.26504297994269344,1,6,,Calibration,6,1
is expected concentration ratio,0.170662,1,6,,Calibration,6,1
residual,2774.949908454998,1,6,,Calibration,6,1
is area ratio,0.16051625239005737,1,7,,Calibration,7,1
is expected concentration ratio,0.1275534,1,7,,Calibration,7,1
residual,1678.9499332006385,1,7,,Calibration,7,1
is area ratio,0.104302103250478,1,8,,Calibration,8,1
is expected concentration ratio,0.0842068,1,8,,Calibration,8,1
residual,1090.9499580828985,1,8,,Calibration,8,1
is area ratio,1.9484905660377358,2,1,,Calibration,9,1
is expected concentration ratio,1.701498,2,1,,Calibration,9,1
residual,20653.87211329614,2,1,,Calibration,9,1
is area ratio,0.9516431924882629,2,2,,Calibration,10,1
is expected concentration ratio,1.2785199999999999,2,2,,Calibration,10,1
residual,10134.872317234083,2,2,,Calibration,10,1
is area ratio,1.0303939962476547,2,3,,Calibration,11,1
is expected concentration ratio,0.854886,2,3,,Calibration,11,1
residual,10983.872521488316,2,3,,Calibration,11,1
is area ratio,0.9701968134957826,2,4,,Calibration,12,1
is expected concentration ratio,0.427702,2,4,,Calibration,12,1
residual,10351.872727454174,2,4,,Calibration,12,1
is area ratio,0.2833333333333333,2,5,,Calibration,13,1
is expected concentration ratio,0.214372,2,5,,Calibration,13,1
residual,3025.8728303107796,2,5,,Calibration,13,1
is area ratio,0.25958840037418146,2,6,,Calibration,14,1
is expected concentration ratio,0.170662,2,6,,Calibration,14,1
residual,2774.8728513854635,2,6,,Calibration,14,1
is area ratio,0.15691588785046728,2,7,,Calibration,15,1
is expected concentration ratio,0.1275534,2,7,,Calibration,15,1
residual,1678.8728721701832,2,7,,Calibration,15,1
is area ratio,0.10186741363211951,2,8,,Calibration,16,1
is expected concentration ratio,0.0842068,2,8,,Calibration,16,1
residual,1090.8728930696543,2,8,,Calibration,16,1
slope,1.1480605113509261,1,,,,,1
intercept,0.049993579850620834,1,,,,,1
sd residuals,7343.025224692835,1,,,,,1
lod,21106.88679028992,1,,,,,1
loq,63960.26300087854,1,,,,,1
slope,0.9642957502720584,2,,,,,1
intercept,0.12706633021604316,2,,,,,1
sd residuals,6734.6030370570625,2,,,,,1
lod,23047.068304530178,2,,,,,1
loq,69839.60092281873,2,,,,,1
lod,23047.068304530178,,,,,,1
loq,69839.60092281873,,,,,,1
