name,tr,area,expected concentration,level,series,parallel,marker,analyte
0.0008 mg/ml compound 1,20.471,20654,0.0008507486260239,1,1,0,Calibration,ACE
0.0006 mg/ml compound 1,20.374,16135,0.000639259787112883,2,1,0,Calibration,ACE
0.0004 mg/ml compound 1,20.547,10984,0.000427442907006176,3,1,0,Calibration,ACE
0.0002 mg/ml compound 1,20.296,6352,0.000213850686544421,4,1,0,Calibration,ACE
0.0001 mg/ml compound 1,20.706,3026,0.000107186415103325,5,1,0,Calibration,ACE
0.00008 mg/ml compound 1,20.344,2775,0.0000853309720993055,6,1,0,Calibration,ACE
0.00006 mg/ml compound 1,20.386,1679,0.0000637766978737226,7,1,0,Calibration,ACE
0.00004 mg/ml compound 1,20.391,1091,0.0000421034449640805,8,1,0,Calibration,ACE
Blank 1,20.391,700,0,9,1,1,Blank,ACE
Blank 2,20.391,402,0,9,1,2,Blank,ACE
Blank 3,20.391,101,0,9,1,3,Blank,ACE
Blank 4,20.391,103,0,9,1,4,Blank,ACE
Blank 5,20.391,300,0,9,1,5,Blank,ACE
0.0008 mg/ml compound 1,20.471,20654,0.0008507486260239,1,2,0,Calibration,ACE
0.0006 mg/ml compound 1,20.374,10135,0.000639259787112883,2,2,0,Calibration,ACE
0.0004 mg/ml compound 1,20.547,10984,0.000427442907006176,3,2,0,Calibration,ACE
0.0002 mg/ml compound 1,20.296,10352,0.000213850686544421,4,2,0,Calibration,ACE
0.0001 mg/ml compound 1,20.706,3026,0.000107186415103325,5,2,0,Calibration,ACE
0.00008 mg/ml compound 1,20.344,2775,0.0000853309720993055,6,2,0,Calibration,ACE
0.00006 mg/ml compound 1,20.386,1679,0.0000637766978737226,7,2,0,Calibration,ACE
0.00004 mg/ml compound 1,20.391,1091,0.0000421034449640805,8,2,0,Calibration,ACE
Blank 1,20.391,1012,0,9,2,1,Blank,ACE
Blank 2,20.391,920,0,9,2,2,Blank,ACE
Blank 3,20.391,1008,0,9,2,3,Blank,ACE
Blank 4,20.391,1036,0,9,2,4,Blank,ACE
Blank 5,20.391,888,0,9,2,5,Blank,ACE
