[
    {
        "name": "chromatogram",
        "data_type": "file",
        "type": 0,
        "official_name": "Chromatogram",
        "abbreviation": null
    },
    {
        "name": "name",
        "data_type": "str",
        "type": 0,
        "official_name": "Name",
        "abbreviation": null
    },
    {
        "name": "rs",
        "data_type": "float",
        "type": 0,
        "official_name": "Resolution (Rs)",
        "abbreviation": "Rs"
    },
    {
        "name": "tr",
        "data_type": "float",
        "type": 0,
        "official_name": "Retention time (tR)",
        "abbreviation": "RT"
    },
    {
        "name": "area",
        "data_type": "float",
        "type": 0,
        "official_name": "Peak area",
        "abbreviation": "Area"
    },
    {
        "name": "parent ion",
        "data_type": "float",
        "type": 0,
        "official_name": "Parent ion",
        "abbreviation": null
    },
    {
        "name": "expected concentration",
        "data_type": "float",
        "type": 0,
        "official_name": "Expected concentration",
        "abbreviation": "Expected conc."
    },
    {
        "name": "mass",
        "data_type": "float",
        "type": 0,
        "official_name": "Mass",
        "abbreviation": null
    },
    {
        "name": "precursor ion",
        "data_type": "float",
        "type": 0,
        "official_name": "Precursor ion",
        "abbreviation": null
    },
    {
        "name": "product ion",
        "data_type": "str",
        "type": 0,
        "official_name": "Product ion",
        "abbreviation": null
    },
    {
        "name": "slope",
        "data_type": "float",
        "type": 1,
        "official_name": "Slope",
        "abbreviation": null
    },
    {
        "name": "intercept",
        "data_type": "float",
        "type": 1,
        "official_name": "Intercept",
        "abbreviation": null
    },
    {
        "name": "sd residuals",
        "data_type": "float",
        "type": 1,
        "official_name": "Standard deviation of residuals",
        "abbreviation": "SD (residuals)"
    },
    {
        "name": "residual",
        "data_type": "float",
        "type": 1,
        "official_name": "Residual",
        "abbreviation": null
    },
    {
        "name": "lod",
        "data_type": "float",
        "type": 1,
        "official_name": "Limit of detection (LoD)",
        "abbreviation": "LoD"
    },
    {
        "name": "loq",
        "data_type": "float",
        "type": 1,
        "official_name": "Limit of quantification (LoQ)",
        "abbreviation": "LoQ"
    },
    {
        "name": "rsquared",
        "data_type": "float",
        "type": 1,
        "official_name": "Correlation coefficient",
        "abbreviation": "R²"
    },
    {
        "name": "rss",
        "data_type": "float",
        "type": 1,
        "official_name": "Residual sum of squares",
        "abbreviation": "RSS"
    },
    {
        "name": "sd slope",
        "data_type": "float",
        "type": 1,
        "official_name": "Standard deviation of slope",
        "abbreviation": "SD (slope)"
    },
    {
        "name": "sd intercept",
        "data_type": "float",
        "type": 1,
        "official_name": "Standard deviation of intercept",
        "abbreviation": "SD (intercept)"
    },
    {
        "name": "experimental concentration",
        "data_type": "float",
        "type": 1,
        "official_name": "Experimental concentration",
        "abbreviation": "Experimental conc."
    },
    {
        "name": "trueness",
        "data_type": "float",
        "type": 1,
        "official_name": "Data for trueness",
        "abbreviation": null
    },
    {
        "name": "mean trueness",
        "data_type": "float",
        "type": 1,
        "official_name": "Trueness",
        "abbreviation": null
    },
    {
        "name": "sd trueness",
        "data_type": "float",
        "type": 1,
        "official_name": "SD (Data for trueness)",
        "abbreviation": null
    },
    {
        "name": "rsd trueness",
        "data_type": "float",
        "type": 1,
        "official_name": "RSD (Data for trueness)",
        "abbreviation": null
    },
    {
        "name": "linear regression graph",
        "data_type": "file",
        "type": 1,
        "official_name": "Linear regression graph",
        "abbreviation": null
    },
    {
        "name": "residuals graph",
        "data_type": "file",
        "type": 1,
        "official_name": "Residuals graph",
        "abbreviation": null
    },
    {
        "name": "sd blanks",
        "data_type": "float",
        "type": 1,
        "official_name": "Standard deviation of blanks",
        "abbreviation": "SD (blanks)"
    },
    {
        "name": "sd y-intercept",
        "data_type": "float",
        "type": 1,
        "official_name": "Standard deviation of y - intercept",
        "abbreviation": "SD (y-intercept)"
    },
    {
        "name": "s0",
        "data_type": "float",
        "type": 1,
        "official_name": "Estimated standard deviation at zero concentration",
        "abbreviation": "s₀"
    },
    {
        "name": "s0prime",
        "data_type": "float",
        "type": 1,
        "official_name": "Standard deviation used for calculation of LoD or LoQ",
        "abbreviation": "s₀'"
    },
    {
        "name": "bc concentration",
        "data_type": "float",
        "type": 1,
        "official_name": "Back calculated concentration",
        "abbreviation": "Back calc. conc."
    },
    {
        "name": "bc concentration error",
        "data_type": "float",
        "type": 1,
        "official_name": "Back calculated concentration error",
        "abbreviation": "Error (Back calc. conc.)"
    },
    {
        "name": "Signal-to-noise ratio (S/N)",
        "data_type": "float",
        "type": 0,
        "official_name": "Signal-to-noise ratio (S/N)",
        "abbreviation": "S/N"
    },
    {
        "name": "mean area",
        "data_type": "float",
        "type": 1,
        "official_name": "Mean (Area)",
        "abbreviation": null
    },
    {
        "name": "mean experimental concentration",
        "data_type": "float",
        "type": 1,
        "official_name": "Mean (Concentration)",
        "abbreviation": null
    },
    {
        "name": "sd area",
        "data_type": "float",
        "type": 1,
        "official_name": "SD (Area)",
        "abbreviation": null
    },
    {
        "name": "sd experimental concentration",
        "data_type": "float",
        "type": 1,
        "official_name": "SD (Concentration)",
        "abbreviation": null
    },
    {
        "name": "rsd area",
        "data_type": "float",
        "type": 1,
        "official_name": "RSD (Area)",
        "abbreviation": null
    },
    {
        "name": "rsd experimental concentration",
        "data_type": "float",
        "type": 1,
        "official_name": "RSD (Concentration)",
        "abbreviation": null
    },
    {
        "name": "n",
        "data_type": "float",
        "type": 0,
        "official_name": "Theoretical plate number (N)",
        "abbreviation": "N"
    },
    {
        "name": "as",
        "data_type": "float",
        "type": 0,
        "official_name": "Asymmetry of the peak",
        "abbreviation": "Aₛ"
    },
    {
        "name": "k",
        "data_type": "float",
        "type": 0,
        "official_name": "Retention factor (k)",
        "abbreviation": "k"
    },
    {
        "name": "mean tr",
        "data_type": "float",
        "type": 1,
        "official_name": "Mean (RT)",
        "abbreviation": null
    },
    {
        "name": "rsd tr",
        "data_type": "float",
        "type": 1,
        "official_name": "RSD (RT)",
        "abbreviation": null
    },
    {
        "name": "mean rs",
        "data_type": "float",
        "type": 1,
        "official_name": "Mean (Resolution)",
        "abbreviation": "Mean (Rₛ)"
    },
    {
        "name": "mean n",
        "data_type": "float",
        "type": 1,
        "official_name": "Mean (Theoretical plate number)",
        "abbreviation": "Mean (N)"
    },
    {
        "name": "mean as",
        "data_type": "float",
        "type": 1,
        "official_name": "Mean (Asymmetry of the peak)",
        "abbreviation": "Mean (Aₛ)"
    },
    {
        "name": "mean k",
        "data_type": "float",
        "type": 1,
        "official_name": "Mean (Retention factor)",
        "abbreviation": "Mean (k)"
    },
    {
        "name": "rsd rs",
        "data_type": "float",
        "type": 1,
        "official_name": "RSD (Resolution)",
        "abbreviation": "RSD (Rₛ)"
    },
    {
        "name": "rsd n",
        "data_type": "float",
        "type": 1,
        "official_name": "RSD (Theoretical plate number)",
        "abbreviation": "RSD (N)"
    },
    {
        "name": "rsd as",
        "data_type": "float",
        "type": 1,
        "official_name": "RSD (Asymmetry of the peak)",
        "abbreviation": "RSD (Aₛ)"
    },
    {
        "name": "rsd k",
        "data_type": "float",
        "type": 1,
        "official_name": "RSD (Retention factor)",
        "abbreviation": "RSD (k)"
    },
    {
        "name": "change tr",
        "data_type": "float",
        "type": 1,
        "official_name": "Change (tR)",
        "abbreviation": null
    },
    {
        "name": "change rs",
        "data_type": "float",
        "type": 1,
        "official_name": "Change (Rₛ)",
        "abbreviation": null
    },
    {
        "name": "change n",
        "data_type": "float",
        "type": 1,
        "official_name": "Change (N)",
        "abbreviation": null
    },
    {
        "name": "change as",
        "data_type": "float",
        "type": 1,
        "official_name": "Change (Aₛ)",
        "abbreviation": null
    },
    {
        "name": "change k",
        "data_type": "float",
        "type": 1,
        "official_name": "Change (k)",
        "abbreviation": null
    },
    {
        "name": "mean change tr",
        "data_type": "float",
        "type": 1,
        "official_name": "Mean[Change (RT)]",
        "abbreviation": null
    },
    {
        "name": "mean change rs",
        "data_type": "float",
        "type": 1,
        "official_name": "Mean[Change (Rₛ)]",
        "abbreviation": null
    },
    {
        "name": "mean change n",
        "data_type": "float",
        "type": 1,
        "official_name": "Mean[Change (N)]",
        "abbreviation": null
    },
    {
        "name": "mean change as",
        "data_type": "float",
        "type": 1,
        "official_name": "Mean[Change (Aₛ)]",
        "abbreviation": null
    },
    {
        "name": "mean change k",
        "data_type": "float",
        "type": 1,
        "official_name": "Mean[Change (k)]",
        "abbreviation": null
    },
    {
        "name": "rsd change tr",
        "data_type": "float",
        "type": 1,
        "official_name": "RSD[Change (RT)]",
        "abbreviation": null
    },
    {
        "name": "rsd change rs",
        "data_type": "float",
        "type": 1,
        "official_name": "RSD[Change (Rₛ)]",
        "abbreviation": null
    },
    {
        "name": "rsd change n",
        "data_type": "float",
        "type": 1,
        "official_name": "RSD[Change (N)]",
        "abbreviation": null
    },
    {
        "name": "rsd change as",
        "data_type": "float",
        "type": 1,
        "official_name": "RSD[Change (Aₛ)]",
        "abbreviation": null
    },
    {
        "name": "rsd change k",
        "data_type": "float",
        "type": 1,
        "official_name": "RSD[Change (k)]",
        "abbreviation": null
    },
    {
        "name": "datetime",
        "data_type": "datetime",
        "type": 0,
        "official_name": "Datetime",
        "abbreviation": null
    },
    {
        "name": "stability graph",
        "data_type": "file",
        "type": 1,
        "official_name": "Stability graph",
        "abbreviation": null
    },
    {
        "name": "ccα",
        "data_type": "float",
        "type": 1,
        "official_name": "Critical value of the net concentration",
        "abbreviation": "CCα"
    },
    {
        "name": "ccβ",
        "data_type": "float",
        "type": 1,
        "official_name": "Minimum detectable value",
        "abbreviation": "CCβ"
    },
    {
        "name": "y critical",
        "data_type": "float",
        "type": 1,
        "official_name": "Critical value of the response variable",
        "abbreviation": "y (critical)"
    },
    {
        "name": "sum sq dev",
        "data_type": "float",
        "type": 1,
        "official_name": "Sum of squared deviations",
        "abbreviation": "sₓₓ"
    },
    {
        "name": "deg freedom",
        "data_type": "float",
        "type": 1,
        "official_name": "Degrees of freedom",
        "abbreviation": "df"
    },
    {
        "name": "t coef",
        "data_type": "float",
        "type": 1,
        "official_name": "T-districution coeficient",
        "abbreviation": "t (α, df)"
    },
    {
        "name": "noncent coef",
        "data_type": "float",
        "type": 1,
        "official_name": "Noncentrality parameter",
        "abbreviation": "δ"
    },
    {
        "name": "xd[0]",
        "data_type": "float",
        "type": 1,
        "official_name": "1st iteration of minimum detectable value",
        "abbreviation": "x (d0)"
    },
    {
        "name": "xd[1]",
        "data_type": "float",
        "type": 1,
        "official_name": "2nd iteration of minimum detectable value",
        "abbreviation": "x (d1)"
    },
    {
        "name": "xd[2]",
        "data_type": "float",
        "type": 1,
        "official_name": "3rd iteration of minimum detectable value",
        "abbreviation": "x (d2)"
    },
    {
        "name": "xd[3]",
        "data_type": "float",
        "type": 1,
        "official_name": "4th iteration of minimum detectable value",
        "abbreviation": "x (d3)"
    },
    {
        "name": "weight sum sq dev",
        "data_type": "float",
        "type": 1,
        "official_name": "Weighted sum of squared deviations",
        "abbreviation": "sₓₓ (weighed)"
    },
    {
        "name": "sd xd[0]",
        "data_type": "float",
        "type": 1,
        "official_name": "Estimate of the residual standard deviation for xd0",
        "abbreviation": "σ(xd0)"
    },
    {
        "name": "sd xd[1]",
        "data_type": "float",
        "type": 1,
        "official_name": "Estimate of the residual standard deviation for xd1",
        "abbreviation": "σ(xd1)"
    },
    {
        "name": "sd xd[2]",
        "data_type": "float",
        "type": 1,
        "official_name": "Estimate of the residual standard deviation for xd2",
        "abbreviation": "σ(xd2)"
    },
    {
        "name": "sd xd[3]",
        "data_type": "float",
        "type": 1,
        "official_name": "Estimate of the residual standard deviation for xd3",
        "abbreviation": "σ(xd3)"
    },
    {
        "name": "alfa",
        "data_type": "float",
        "type": 0,
        "official_name": "Alfa",
        "abbreviation": "α"
    },
    {
        "name": "beta",
        "data_type": "float",
        "type": 0,
        "official_name": "Beta",
        "abbreviation": "β"
    },
    {
        "name": "K",
        "data_type": "float",
        "type": 0,
        "official_name": "K",
        "abbreviation": "K"
    },
    {
        "name": "sigma[1]",
        "data_type": "float",
        "type": 1,
        "official_name": "Standard deviation at xi in the qth iteration step",
        "abbreviation": "σ₁ᵢ"
    },
    {
        "name": "sigma[2]",
        "data_type": "float",
        "type": 1,
        "official_name": "Standard deviation at xi in the qth iteration step",
        "abbreviation": "σ₂ᵢ"
    },
    {
        "name": "sigma[3]",
        "data_type": "float",
        "type": 1,
        "official_name": "Standard deviation at xi in the qth iteration step",
        "abbreviation": "σ₃ᵢ"
    },
    {
        "name": "s",
        "data_type": "float",
        "type": 1,
        "official_name": "Empirical standard deviation for ith level",
        "abbreviation": "sᵢ"
    },
    {
        "name": "sigma0",
        "data_type": "float",
        "type": 1,
        "official_name": "intercept in σ(x)=σ_0+dx for residual standard deviation",
        "abbreviation": "σ₀"
    },
    {
        "name": "d",
        "data_type": "float",
        "type": 1,
        "official_name": "slope in σ(x)=σ_0+dx for residual standard deviation",
        "abbreviation": "d"
    },
    {
        "name": "is area",
        "data_type": "float",
        "type": 0,
        "official_name": "IS Area",
        "abbreviation": "IS Area"
    },
    {
        "name": "is expected concentration",
        "data_type": "float",
        "type": 0,
        "official_name": "IS expected concentration",
        "abbreviation": "IS Expected conc."
    },
    {
        "name": "is area ratio",
        "data_type": "float",
        "type": 1,
        "official_name": "IS Area ratio",
        "abbreviation": "IS Area ratio"
    },
    {
        "name": "is expected concentration ratio",
        "data_type": "float",
        "type": 1,
        "official_name": "IS expected concentration ratio",
        "abbreviation": "IS Expected conc. ratio"
    }
]
