name,tr,area,expected concentration,series,level,parallel,marker,analyte
1.0 mg/ml ACEzalil,18.2,38489473,1.019024673,11.03.2018 12:00,1,1,Calibation,ACE
0.8 mg/ml ACEzalil,18.2,31285035,0.813941697,11.03.2018 12:00,2,1,Calibation,ACE
0.6 mg/ml ACEzalil,18.2,23799618,0.612960681,11.03.2018 12:00,3,1,Calibation,ACE
0.4 mg/ml ACEzalil,18.2,15866617,0.406306764,11.03.2018 12:00,4,1,Calibation,ACE
0.2 mg/ml ACEzalil,18.2,8000115,0.204248167,11.03.2018 12:00,5,1,Calibation,ACE
0.1 mg/ml ACEzalil,18.2,3932841,0.100684207,11.03.2018 12:00,6,1,Calibation,ACE
0.5 mg/ml ACEzalil,18.2,18848947,0.5,11.03.2018 12:00,7,1,Sample,ACE
0.5 mg/ml ACEzalil,18.2,19848947,0.5,11.03.2018 12:00,7,2,Sample,ACE
0.5 mg/ml ACEzalil,18.2,16848947,0.5,11.03.2018 12:00,7,3,Sample,ACE
0.6 mg/ml ACEzalil,18.2,22948947,0.6,11.03.2018 12:00,8,1,Sample,ACE
0.6 mg/ml ACEzalil,18.2,23048947,0.6,11.03.2018 12:00,8,2,Sample,ACE
0.6 mg/ml ACEzalil,18.2,21048947,0.6,11.03.2018 12:00,8,3,Sample,ACE
0.4 mg/ml ACEzalil,18.2,16048947,0.4,11.03.2018 12:00,9,1,Sample,ACE
0.4 mg/ml ACEzalil,18.2,15048947,0.4,11.03.2018 12:00,9,2,Sample,ACE
0.4 mg/ml ACEzalil,18.2,15228947,0.4,11.03.2018 12:00,9,3,Sample,ACE
1.0 mg/ml ACEzalil,18.2,37489473,1.019024673,13.03.2018 12:00,1,1,Calibation,ACE
0.8 mg/ml ACEzalil,18.2,31285035,0.813941697,13.03.2018 12:00,2,1,Calibation,ACE
0.6 mg/ml ACEzalil,18.2,22799618,0.612960681,13.03.2018 12:00,3,1,Calibation,ACE
0.4 mg/ml ACEzalil,18.2,15866617,0.406306764,13.03.2018 12:00,4,1,Calibation,ACE
0.2 mg/ml ACEzalil,18.2,8000115,0.204248167,13.03.2018 12:00,5,1,Calibation,ACE
0.1 mg/ml ACEzalil,18.2,3932841,0.100684207,13.03.2018 12:00,6,1,Calibation,ACE
0.5 mg/ml ACEzalil,18.2,18848947,0.5,13.03.2018 12:00,7,1,Sample,ACE
0.5 mg/ml ACEzalil,18.2,19848947,0.5,13.03.2018 12:00,7,2,Sample,ACE
0.5 mg/ml ACEzalil,18.2,16848947,0.5,13.03.2018 12:00,7,3,Sample,ACE
0.6 mg/ml ACEzalil,18.2,22948947,0.6,13.03.2018 12:00,8,1,Sample,ACE
0.6 mg/ml ACEzalil,18.2,23048947,0.6,13.03.2018 12:00,8,2,Sample,ACE
0.6 mg/ml ACEzalil,18.2,21048947,0.6,13.03.2018 12:00,8,3,Sample,ACE
0.4 mg/ml ACEzalil,18.2,16048947,0.4,13.03.2018 12:00,9,1,Sample,ACE
0.4 mg/ml ACEzalil,18.2,15048947,0.4,13.03.2018 12:00,9,2,Sample,ACE
0.4 mg/ml ACEzalil,18.2,15228947,0.4,13.03.2018 12:00,9,3,Sample,ACE
1.0 mg/ml THCrofezin,18.2,38489473,1.019024673,11.03.2018 12:00,1,1,Calibation,THC
0.8 mg/ml THCrofezin,18.2,31285035,0.813941697,11.03.2018 12:00,2,1,Calibation,THC
0.6 mg/ml THCrofezin,18.2,23799618,0.612960681,11.03.2018 12:00,3,1,Calibation,THC
0.4 mg/ml THCrofezin,18.2,15866617,0.406306764,11.03.2018 12:00,4,1,Calibation,THC
0.2 mg/ml THCrofezin,18.2,8000115,0.204248167,11.03.2018 12:00,5,1,Calibation,THC
0.1 mg/ml THCrofezin,18.2,3932841,0.100684207,11.03.2018 12:00,6,1,Calibation,THC
0.5 mg/ml THCrofezin,18.2,18848947,0.5,11.03.2018 12:00,7,1,Sample,THC
0.5 mg/ml THCrofezin,18.2,19848947,0.5,11.03.2018 12:00,7,2,Sample,THC
0.5 mg/ml THCrofezin,18.2,16848947,0.5,11.03.2018 12:00,7,3,Sample,THC
0.6 mg/ml THCrofezin,18.2,22948947,0.6,11.03.2018 12:00,8,1,Sample,THC
0.6 mg/ml THCrofezin,18.2,23048947,0.6,11.03.2018 12:00,8,2,Sample,THC
0.6 mg/ml THCrofezin,18.2,21048947,0.6,11.03.2018 12:00,8,3,Sample,THC
0.4 mg/ml THCrofezin,18.2,16048947,0.4,11.03.2018 12:00,9,1,Sample,THC
0.4 mg/ml THCrofezin,18.2,15048947,0.4,11.03.2018 12:00,9,2,Sample,THC
0.4 mg/ml THCrofezin,18.2,15228947,0.4,11.03.2018 12:00,9,3,Sample,THC
1.0 mg/ml THCrofezin,18.2,39489473,1.019024673,13.03.2018 12:00,1,1,Calibation,THC
0.8 mg/ml THCrofezin,18.2,31285035,0.813941697,13.03.2018 12:00,2,1,Calibation,THC
0.6 mg/ml THCrofezin,18.2,24799618,0.612960681,13.03.2018 12:00,3,1,Calibation,THC
0.4 mg/ml THCrofezin,18.2,14866617,0.406306764,13.03.2018 12:00,4,1,Calibation,THC
0.2 mg/ml THCrofezin,18.2,8000115,0.204248167,13.03.2018 12:00,5,1,Calibation,THC
0.1 mg/ml THCrofezin,18.2,3932841,0.100684207,13.03.2018 12:00,6,1,Calibation,THC
0.5 mg/ml THCrofezin,18.2,18848947,0.5,13.03.2018 12:00,7,1,Sample,THC
0.5 mg/ml THCrofezin,18.2,19848947,0.5,13.03.2018 12:00,7,2,Sample,THC
0.5 mg/ml THCrofezin,18.2,16848947,0.5,13.03.2018 12:00,7,3,Sample,THC
0.6 mg/ml THCrofezin,18.2,22948947,0.6,13.03.2018 12:00,8,1,Sample,THC
0.6 mg/ml THCrofezin,18.2,23048947,0.6,13.03.2018 12:00,8,2,Sample,THC
0.6 mg/ml THCrofezin,18.2,21048947,0.6,13.03.2018 12:00,8,3,Sample,THC
0.4 mg/ml THCrofezin,18.2,16048947,0.4,13.03.2018 12:00,9,1,Sample,THC
0.4 mg/ml THCrofezin,18.2,15048947,0.4,13.03.2018 12:00,9,2,Sample,THC
0.4 mg/ml THCrofezin,18.2,15228947,0.4,13.03.2018 12:00,9,3,Sample,THC
