name,value,series,level,parallel,marker,row,analyte
mean area,18515613.666666668,11.03.2018 12:00,7,,Sample,,1
sd area,1527525.2316519467,11.03.2018 12:00,7,,Sample,,1
rsd area,8.249930351495308,11.03.2018 12:00,7,,Sample,,1
mean area,22348947.0,11.03.2018 12:00,8,,Sample,,1
sd area,1126942.7669584644,11.03.2018 12:00,8,,Sample,,1
rsd area,5.042487088803174,11.03.2018 12:00,8,,Sample,,1
mean area,15442280.333333334,11.03.2018 12:00,9,,Sample,,1
sd area,533041.5868704179,11.03.2018 12:00,9,,Sample,,1
rsd area,3.4518320828550636,11.03.2018 12:00,9,,Sample,,1
mean area,18515613.666666668,13.03.2018 12:00,7,,Sample,,1
sd area,1527525.2316519467,13.03.2018 12:00,7,,Sample,,1
rsd area,8.249930351495308,13.03.2018 12:00,7,,Sample,,1
mean area,22348947.0,13.03.2018 12:00,8,,Sample,,1
sd area,1126942.7669584644,13.03.2018 12:00,8,,Sample,,1
rsd area,5.042487088803174,13.03.2018 12:00,8,,Sample,,1
mean area,15442280.333333334,13.03.2018 12:00,9,,Sample,,1
sd area,533041.5868704179,13.03.2018 12:00,9,,Sample,,1
rsd area,3.4518320828550636,13.03.2018 12:00,9,,Sample,,1
mean area,18515613.666666668,,7,,Sample,,1
sd area,1366260.1021279464,,7,,Sample,,1
rsd area,7.378962030232897,,7,,Sample,,1
mean area,22348947.0,,8,,Sample,,1
sd area,1007968.2534683322,,8,,Sample,,1
rsd area,4.5101375624915674,,8,,Sample,,1
mean area,15442280.333333334,,9,,Sample,,1
sd area,476766.88923064555,,9,,Sample,,1
rsd area,3.087412473671444,,9,,Sample,,1
mean area,18515613.666666668,11.03.2018 12:00,7,,Sample,,2
sd area,1527525.2316519467,11.03.2018 12:00,7,,Sample,,2
rsd area,8.249930351495308,11.03.2018 12:00,7,,Sample,,2
mean area,22348947.0,11.03.2018 12:00,8,,Sample,,2
sd area,1126942.7669584644,11.03.2018 12:00,8,,Sample,,2
rsd area,5.042487088803174,11.03.2018 12:00,8,,Sample,,2
mean area,15442280.333333334,11.03.2018 12:00,9,,Sample,,2
sd area,533041.5868704179,11.03.2018 12:00,9,,Sample,,2
rsd area,3.4518320828550636,11.03.2018 12:00,9,,Sample,,2
mean area,18515613.666666668,13.03.2018 12:00,7,,Sample,,2
sd area,1527525.2316519467,13.03.2018 12:00,7,,Sample,,2
rsd area,8.249930351495308,13.03.2018 12:00,7,,Sample,,2
mean area,22348947.0,13.03.2018 12:00,8,,Sample,,2
sd area,1126942.7669584644,13.03.2018 12:00,8,,Sample,,2
rsd area,5.042487088803174,13.03.2018 12:00,8,,Sample,,2
mean area,15442280.333333334,13.03.2018 12:00,9,,Sample,,2
sd area,533041.5868704179,13.03.2018 12:00,9,,Sample,,2
rsd area,3.4518320828550636,13.03.2018 12:00,9,,Sample,,2
mean area,18515613.666666668,,7,,Sample,,2
sd area,1366260.1021279464,,7,,Sample,,2
rsd area,7.378962030232897,,7,,Sample,,2
mean area,22348947.0,,8,,Sample,,2
sd area,1007968.2534683322,,8,,Sample,,2
rsd area,4.5101375624915674,,8,,Sample,,2
mean area,15442280.333333334,,9,,Sample,,2
sd area,476766.88923064555,,9,,Sample,,2
rsd area,3.087412473671444,,9,,Sample,,2
