name,value,series,level,parallel,marker,row,analyte
is area ratio,3.905747191011236,11/02/2018,1,1,Calibration,1,1
is expected concentration ratio,4.06970848693382,11/02/2018,1,1,Calibration,1,1
is area ratio,2.9674964152566674,11/02/2018,2,1,Calibration,2,1
is expected concentration ratio,3.0648034052191444,11/02/2018,2,1,Calibration,2,1
is area ratio,1.9758645316470356,11/02/2018,3,1,Calibration,3,1
is expected concentration ratio,2.0315338216398398,11/02/2018,3,1,Calibration,3,1
is area ratio,0.9974498068653234,11/02/2018,4,1,Calibration,4,1
is expected concentration ratio,1.021240833868385,11/02/2018,4,1,Calibration,4,1
is area ratio,0.4909323022797256,11/02/2018,5,1,Calibration,5,1
is expected concentration ratio,0.50342103397408,11/02/2018,5,1,Calibration,5,1
experimental concentration,0.47355964869176576,11/02/2018,2,3,Sample,6,1
trueness,101.57557907606318,11/02/2018,2,3,Sample,6,1
experimental concentration,0.39367953061892935,11/02/2018,1,1,Sample,7,1
trueness,101.54622272505335,11/02/2018,1,1,Sample,7,1
experimental concentration,0.38563936904305013,11/02/2018,1,2,Sample,8,1
trueness,101.41200724691355,11/02/2018,1,2,Sample,8,1
experimental concentration,0.38267552163241797,11/02/2018,1,3,Sample,9,1
trueness,101.85365504569914,11/02/2018,1,3,Sample,9,1
experimental concentration,0.4708227525798775,11/02/2018,2,1,Sample,10,1
trueness,101.37059004131068,11/02/2018,2,1,Sample,10,1
experimental concentration,0.47885255458965365,11/02/2018,2,2,Sample,11,1
trueness,101.62422522439269,11/02/2018,2,2,Sample,11,1
experimental concentration,5.695103701406603,11/02/2018,3,1,Sample,12,1
trueness,1043.5162431903143,11/02/2018,3,1,Sample,12,1
experimental concentration,5.852227981770123,11/02/2018,3,2,Sample,13,1
trueness,1062.0864505113213,11/02/2018,3,2,Sample,13,1
slope,0.9584604181311193,11/02/2018,,,Calibration,,1
intercept,0.01817403764966452,11/02/2018,,,Calibration,,1
mean trueness,101.60396167255534,11/02/2018,1,,Sample,,1
sd trueness,0.22641451827791195,11/02/2018,1,,Sample,,1
rsd trueness,0.22284024613881733,11/02/2018,1,,Sample,,1
mean trueness,101.52346478058887,11/02/2018,2,,Sample,,1
sd trueness,0.1346091615338668,11/02/2018,2,,Sample,,1
rsd trueness,0.13258921159239618,11/02/2018,2,,Sample,,1
mean trueness,1053.9581871172504,11/02/2018,3,,Sample,,1
sd trueness,9.498841413162737,11/02/2018,3,,Sample,,1
rsd trueness,0.9012541037461491,11/02/2018,3,,Sample,,1
slope,9.999556023459919,11/06/2018,,,Calibration,,1
intercept,-0.019792887241127932,11/06/2018,,,Calibration,,1
mean trueness,102.966356953156,11/06/2018,1,,Sample,,1
sd trueness,1.7111591876957941,11/06/2018,1,,Sample,,1
rsd trueness,1.661862416356322,11/06/2018,1,,Sample,,1
mean trueness,9.92696793741554,11/06/2018,2,,Sample,,1
sd trueness,0.02197706827164303,11/06/2018,2,,Sample,,1
rsd trueness,0.2213875214486157,11/06/2018,2,,Sample,,1
mean trueness,9.866645372837942,11/06/2018,3,,Sample,,1
sd trueness,0.06414014969571674,11/06/2018,3,,Sample,,1
rsd trueness,0.6500704877089153,11/06/2018,3,,Sample,,1
slope,0.9563744828907137,11/15/18,,,Calibration,,1
intercept,0.014662331786824634,11/15/18,,,Calibration,,1
mean trueness,1059.4892538103074,11/15/18,1,,Sample,,1
sd trueness,12.033988837850307,11/15/18,1,,Sample,,1
rsd trueness,1.1358292492889117,11/15/18,1,,Sample,,1
mean trueness,1060.3846816264124,11/15/18,2,,Sample,,1
sd trueness,11.724422379418597,11/15/18,2,,Sample,,1
rsd trueness,1.1056763250706092,11/15/18,2,,Sample,,1
mean trueness,1051.856233727431,11/15/18,3,,Sample,,1
sd trueness,8.15457823401129,11/15/18,3,,Sample,,1
rsd trueness,0.7752559686901468,11/15/18,3,,Sample,,1
mean trueness,421.35319081200623,,1,,Sample,,1
sd trueness,478.64101026500305,,1,,Sample,,1
rsd trueness,113.59615180380982,,1,,Sample,,1
mean trueness,390.6117047814722,,2,,Sample,,1
sd trueness,503.927217093303,,2,,Sample,,1
rsd trueness,129.00975852099086,,2,,Sample,,1
mean trueness,705.2270220725064,,3,,Sample,,1
sd trueness,521.558640816915,,3,,Sample,,1
rsd trueness,73.95613391049161,,3,,Sample,,1
slope,11.496056139966308,11/02/2018,,,Calibration,,2
intercept,-8.78503300238886,11/02/2018,,,Calibration,,2
mean trueness,48.652315225913355,11/02/2018,1,,Sample,,2
sd trueness,0.6241327410696393,11/02/2018,1,,Sample,,2
rsd trueness,1.2828428373275271,11/02/2018,1,,Sample,,2
mean trueness,41.24043744318025,11/02/2018,2,,Sample,,2
sd trueness,0.24619552850976872,11/02/2018,2,,Sample,,2
rsd trueness,0.59697603559363075,11/02/2018,2,,Sample,,2
mean trueness,67.2517122818141,11/02/2018,3,,Sample,,2
sd trueness,53.45190872467181,11/02/2018,3,,Sample,,2
rsd trueness,79.48036847104343,11/02/2018,3,,Sample,,2
slope,10.034998417296503,11/06/2018,,,Calibration,,2
intercept,0.004400918528474129,11/06/2018,,,Calibration,,2
mean trueness,100.95477256471271,11/06/2018,1,,Sample,,2
sd trueness,0.1252005977830611,11/06/2018,1,,Sample,,2
rsd trueness,0.12401652205477126,11/06/2018,1,,Sample,,2
mean trueness,72.0721434800569,11/06/2018,2,,Sample,,2
sd trueness,53.905777600116636,11/06/2018,2,,Sample,,2
rsd trueness,74.79419231513895,11/06/2018,2,,Sample,,2
mean trueness,9.747475675934743,11/06/2018,3,,Sample,,2
sd trueness,0.0750010041339172,11/06/2018,3,,Sample,,2
rsd trueness,0.7694402800007492,11/06/2018,3,,Sample,,2
slope,0.958735216381237,11/15/18,,,Calibration,,2
intercept,0.010878380317845215,11/15/18,,,Calibration,,2
mean trueness,417.95119451826537,11/15/18,1,,Sample,,2
sd trueness,547.8459672584053,11/15/18,1,,Sample,,2
rsd trueness,131.07893324479138,11/15/18,1,,Sample,,2
mean trueness,1066.8997287631,11/15/18,2,,Sample,,2
sd trueness,2.247262577854237,11/15/18,2,,Sample,,2
rsd trueness,0.2106348438629354,11/15/18,2,,Sample,,2
mean trueness,1048.067264210946,11/15/18,3,,Sample,,2
sd trueness,17.412695578867574,11/15/18,3,,Sample,,2
rsd trueness,1.6614101187462427,11/15/18,3,,Sample,,2
mean trueness,189.18609410296384,,1,,Sample,,2
sd trueness,324.01295478305155,,1,,Sample,,2
rsd trueness,171.26679226577228,,1,,Sample,,2
mean trueness,393.404103228779,,2,,Sample,,2
sd trueness,506.01771062485125,,2,,Sample,,2
rsd trueness,128.62542776545045,,2,,Sample,,2
mean trueness,375.02215072289823,,3,,Sample,,2
sd trueness,506.1786364114241,,3,,Sample,,2
rsd trueness,134.97299704449637,,3,,Sample,,2
is area ratio,27.036983012418478,11/06/2018,1,1,Calibration,15,1
is expected concentration ratio,2.70700096411672,11/06/2018,1,1,Calibration,15,1
is area ratio,20.41154859436922,11/06/2018,2,1,Calibration,16,1
is expected concentration ratio,2.03238156287463,11/06/2018,2,1,Calibration,16,1
is area ratio,13.418297572124423,11/06/2018,3,1,Calibration,17,1
is expected concentration ratio,1.3613750690331334,11/06/2018,3,1,Calibration,17,1
is area ratio,6.804349318065223,11/06/2018,4,1,Calibration,18,1
is expected concentration ratio,0.6753678156333234,11/06/2018,4,1,Calibration,18,1
is area ratio,3.442869308562849,11/06/2018,5,1,Calibration,19,1
is expected concentration ratio,0.3454919956224067,11/06/2018,5,1,Calibration,19,1
experimental concentration,0.4159640070804736,11/06/2018,1,1,Sample,20,1
trueness,101.14749003122927,11/06/2018,1,1,Sample,20,1
experimental concentration,0.42681171791159467,11/06/2018,1,2,Sample,21,1
trueness,103.20731595247084,11/06/2018,1,2,Sample,21,1
experimental concentration,0.4323242435133179,11/06/2018,1,3,Sample,22,1
trueness,104.54426487576791,11/06/2018,1,3,Sample,22,1
experimental concentration,0.05131130688267698,11/06/2018,2,1,Sample,23,1
trueness,9.90160763278669,11/06/2018,2,1,Sample,23,1
experimental concentration,0.051402748327599265,11/06/2018,2,2,Sample,24,1
trueness,9.940443540335213,11/06/2018,2,2,Sample,24,1
experimental concentration,0.05150898536630055,11/06/2018,2,3,Sample,25,1
trueness,9.93885263912472,11/06/2018,2,3,Sample,25,1
experimental concentration,0.061442883145329794,11/06/2018,3,1,Sample,26,1
trueness,9.852931331964955,11/06/2018,3,1,Sample,26,1
experimental concentration,0.061572657368986435,11/06/2018,3,2,Sample,27,1
trueness,9.81047142774804,11/06/2018,3,2,Sample,27,1
experimental concentration,0.06227092521929825,11/06/2018,3,3,Sample,28,1
trueness,9.936533358800828,11/06/2018,3,3,Sample,28,1
is area ratio,3.8880503921462917,11/15/18,1,1,Calibration,29,1
is expected concentration ratio,4.0605014461750795,11/15/18,1,1,Calibration,29,1
is area ratio,2.935076403540118,11/15/18,2,1,Calibration,30,1
is expected concentration ratio,3.048572344311945,11/15/18,2,1,Calibration,30,1
is area ratio,1.9828684843699775,11/15/18,3,1,Calibration,31,1
is expected concentration ratio,2.0420626035497,11/15/18,3,1,Calibration,31,1
is area ratio,0.9832685496181686,11/15/18,4,1,Calibration,32,1
is expected concentration ratio,1.013051723449985,11/15/18,4,1,Calibration,32,1
is area ratio,0.5004475771092494,11/15/18,5,1,Calibration,33,1
is expected concentration ratio,0.51823799343361,11/15/18,5,1,Calibration,33,1
experimental concentration,4.300309026636263,11/15/18,1,1,Sample,34,1
trueness,1045.6805324474794,11/15/18,1,1,Sample,34,1
experimental concentration,4.404490684079034,11/15/18,1,2,Sample,35,1
trueness,1065.0496285943473,11/15/18,1,2,Sample,35,1
experimental concentration,4.4154392486998715,11/15/18,1,3,Sample,36,1
trueness,1067.7376003890954,11/15/18,1,3,Sample,36,1
experimental concentration,5.540270089426005,11/15/18,2,1,Sample,37,1
trueness,1069.1129097645455,11/15/18,2,1,Sample,37,1
experimental concentration,5.507103790272625,11/15/18,2,2,Sample,38,1
trueness,1064.9830228742521,11/15/18,2,2,Sample,38,1
experimental concentration,5.426471539456167,11/15/18,2,3,Sample,39,1
trueness,1047.0581122404399,11/15/18,2,3,Sample,39,1
experimental concentration,6.565061809625497,11/15/18,3,1,Sample,40,1
trueness,1052.7680325050349,11/15/18,3,1,Sample,40,1
experimental concentration,6.547878311427706,11/15/18,3,2,Sample,41,1
trueness,1043.2840782179485,11/15/18,3,2,Sample,41,1
experimental concentration,6.639848726986994,11/15/18,3,3,Sample,42,1
trueness,1059.516590459309,11/15/18,3,3,Sample,42,1
is area ratio,27.21521701686411,11/02/2018,1,1,Calibration,43,2
is expected concentration ratio,2.7131389912892137,11/02/2018,1,1,Calibration,43,2
is area ratio,20.95289484735395,11/02/2018,2,1,Calibration,44,2
is expected concentration ratio,2.0432022701460966,11/02/2018,2,1,Calibration,44,2
is area ratio,1.980851061173533,11/02/2018,3,1,Calibration,45,2
is expected concentration ratio,2.0315338216398398,11/02/2018,3,1,Calibration,45,2
is area ratio,0.9975081358087804,11/02/2018,4,1,Calibration,46,2
is expected concentration ratio,1.021240833868385,11/02/2018,4,1,Calibration,46,2
is area ratio,0.48975538014860126,11/02/2018,5,1,Calibration,47,2
is expected concentration ratio,0.50342103397408,11/02/2018,5,1,Calibration,47,2
experimental concentration,0.19263726176757381,11/02/2018,2,3,Sample,48,2
trueness,41.31948629855615,11/02/2018,2,3,Sample,48,2
experimental concentration,0.18605924496175777,11/02/2018,1,1,Sample,49,2
trueness,47.992369578469145,11/02/2018,1,1,Sample,49,2
experimental concentration,0.1853112346090582,11/02/2018,1,2,Sample,50,2
trueness,48.73149832638175,11/02/2018,1,2,Sample,50,2
experimental concentration,0.18497415443615264,11/02/2018,1,3,Sample,51,2
trueness,49.23307777288919,11/02/2018,1,3,Sample,51,2
experimental concentration,0.19245888107064438,11/02/2018,2,1,Sample,52,2
trueness,41.43739916118804,11/02/2018,2,1,Sample,52,2
experimental concentration,0.19302405908227047,11/02/2018,2,2,Sample,53,2
trueness,40.96442686979657,11/02/2018,2,2,Sample,53,2
experimental concentration,0.19920557155371424,11/02/2018,3,1,Sample,54,2
trueness,36.50052054345727,11/02/2018,3,1,Sample,54,2
experimental concentration,0.19991878575579217,11/02/2018,3,2,Sample,55,2
trueness,36.28208508200989,11/02/2018,3,2,Sample,55,2
experimental concentration,0.7031750417558946,11/02/2018,3,3,Sample,56,2
trueness,128.9725312199751,11/02/2018,3,3,Sample,56,2
is area ratio,27.106785090122717,11/06/2018,1,1,Calibration,57,2
is expected concentration ratio,2.70700096411672,11/06/2018,1,1,Calibration,57,2
is area ratio,20.463117762491105,11/06/2018,2,1,Calibration,58,2
is expected concentration ratio,2.03238156287463,11/06/2018,2,1,Calibration,58,2
is area ratio,13.691067402895778,11/06/2018,3,1,Calibration,59,2
is expected concentration ratio,1.3613750690331334,11/06/2018,3,1,Calibration,59,2
is area ratio,6.82425442287142,11/06/2018,4,1,Calibration,60,2
is expected concentration ratio,0.6753678156333234,11/06/2018,4,1,Calibration,60,2
is area ratio,3.402199324909488,11/06/2018,5,1,Calibration,61,2
is expected concentration ratio,0.3454919956224067,11/06/2018,5,1,Calibration,61,2
experimental concentration,0.4157533045778314,11/06/2018,1,1,Sample,62,2
trueness,101.09625475865091,11/06/2018,1,1,Sample,62,2
experimental concentration,0.41731024887661533,11/06/2018,1,2,Sample,63,2
trueness,100.90976629403139,11/06/2018,1,2,Sample,63,2
experimental concentration,0.417081576396124,11/06/2018,1,3,Sample,64,2
trueness,100.85829664145585,11/06/2018,1,3,Sample,64,2
experimental concentration,0.5301563975702389,11/06/2018,2,1,Sample,65,2
trueness,102.304948980444,11/06/2018,2,1,Sample,65,2
experimental concentration,0.5381843221673859,11/06/2018,2,2,Sample,66,2
trueness,104.07596953188698,11/06/2018,2,2,Sample,66,2
experimental concentration,0.050973412963871575,11/06/2018,2,3,Sample,67,2
trueness,9.83551192783969,11/06/2018,2,3,Sample,67,2
experimental concentration,0.060747243126550644,11/06/2018,3,1,Sample,68,2
trueness,9.74137905795161,11/06/2018,3,1,Sample,68,2
experimental concentration,0.060726859326002205,11/06/2018,3,2,Sample,69,2
trueness,9.675709052874131,11/06/2018,3,2,Sample,69,2
experimental concentration,0.06157408452833552,11/06/2018,3,3,Sample,70,2
trueness,9.825338916978483,11/06/2018,3,3,Sample,70,2
is area ratio,3.898050846315125,11/15/18,1,1,Calibration,71,2
is expected concentration ratio,4.0605014461750795,11/15/18,1,1,Calibration,71,2
is area ratio,2.93575956184418,11/15/18,2,1,Calibration,72,2
is expected concentration ratio,3.048572344311945,11/15/18,2,1,Calibration,72,2
is area ratio,1.9777964928147913,11/15/18,3,1,Calibration,73,2
is expected concentration ratio,2.0420626035497,11/15/18,3,1,Calibration,73,2
is area ratio,0.9845907883999784,11/15/18,4,1,Calibration,74,2
is expected concentration ratio,1.013051723449985,11/15/18,4,1,Calibration,74,2
is area ratio,0.49981232114492213,11/15/18,5,1,Calibration,75,2
is expected concentration ratio,0.51823799343361,11/15/18,5,1,Calibration,75,2
experimental concentration,0.4166877804587676,11/15/18,1,1,Sample,76,2
trueness,101.32348569268008,11/15/18,1,1,Sample,76,2
experimental concentration,0.4217402470955174,11/15/18,1,2,Sample,77,2
trueness,101.98098389809402,11/15/18,1,2,Sample,77,2
experimental concentration,4.344359315241166,11/15/18,1,3,Sample,78,2
trueness,1050.5491139640221,11/15/18,1,3,Sample,78,2
experimental concentration,5.5420921808486785,11/15/18,2,1,Sample,79,2
trueness,1069.4645210454592,11/15/18,2,1,Sample,79,2
experimental concentration,5.508618329915673,11/15/18,2,2,Sample,80,2
trueness,1065.275909856002,11/15/18,2,2,Sample,80,2
experimental concentration,5.524425799031423,11/15/18,2,3,Sample,81,2
trueness,1065.958755387839,11/15/18,2,3,Sample,81,2
experimental concentration,6.569251667501302,11/15/18,3,1,Sample,82,2
trueness,1053.4399147447298,11/15/18,3,1,Sample,82,2
experimental concentration,6.455726620261369,11/15/18,3,2,Sample,83,2
trueness,1028.6013997071234,11/15/18,3,2,Sample,83,2
experimental concentration,6.6564176176312175,11/15/18,3,3,Sample,84,2
trueness,1062.1604781809842,11/15/18,3,3,Sample,84,2
experimental concentration,5.758931825363845,11/02/2018,3,3,Sample,14,1
trueness,1056.2718676501156,11/02/2018,3,3,Sample,14,1
